<svg width="369" height="275" viewBox="0 0 369 275" fill="none" xmlns="http://www.w3.org/2000/svg">
<g clip-path="url(#clip0)">
<path d="M369 241.64H0V241.788H369V241.64Z" fill="#D1E3FF"/>
<path d="M281.252 247.249H268.042V247.397H281.252V247.249Z" fill="#D1E3FF"/>
<path d="M321.399 247.175H289.222V247.323H321.399V247.175Z" fill="#D1E3FF"/>
<path d="M228.559 250.423H180.589V250.57H228.559V250.423Z" fill="#D1E3FF"/>
<path d="M176.308 250.423H168.043V250.57H176.308V250.423Z" fill="#D1E3FF"/>
<path d="M100.958 247.028H69.9624V247.175H100.958V247.028Z" fill="#D1E3FF"/>
<path d="M127.01 247.028H105.017V247.175H127.01V247.028Z" fill="#D1E3FF"/>
<path d="M75.645 250.349H49.3722V250.496H75.645V250.349Z" fill="#D1E3FF"/>
<path d="M174.906 208.722H32.3982C30.1104 208.722 28.1916 206.804 28.1916 204.516V4.20692C28.1916 1.91895 30.1104 0 32.3982 0H174.906C177.194 0 179.113 1.91895 179.113 4.20692V204.516C179.113 206.877 177.268 208.722 174.906 208.722ZM32.3982 0.147611C30.1842 0.147611 28.3392 1.91895 28.3392 4.20692V204.516C28.3392 206.73 30.1104 208.575 32.3982 208.575H174.906C177.12 208.575 178.965 206.804 178.965 204.516V4.20692C178.965 1.99275 177.194 0.147611 174.906 0.147611H32.3982Z" fill="#D1E3FF"/>
<path d="M334.535 208.722H192.028C189.74 208.722 187.821 206.804 187.821 204.516V4.20692C187.821 1.91895 189.74 0 192.028 0H334.535C336.823 0 338.742 1.91895 338.742 4.20692V204.516C338.742 206.877 336.897 208.722 334.535 208.722ZM192.028 0.147611C189.814 0.147611 187.969 1.91895 187.969 4.20692V204.516C187.969 206.73 189.74 208.575 192.028 208.575H334.535C336.749 208.575 338.594 206.804 338.594 204.516V4.20692C338.594 1.99275 336.823 0.147611 334.535 0.147611H192.028Z" fill="#D1E3FF"/>
<path d="M87.9696 241.64H72.324C64.1322 227.395 59.6304 189.164 71.0694 147.685C72.9882 140.747 75.3498 133.81 78.1542 126.798C82.5084 185.105 101.254 224.369 87.9696 241.64Z" fill="#EEF5FF"/>
<path d="M59.04 241.64H74.6856C81.918 231.086 84.0582 202.892 70.0362 172.189C67.6746 167.096 64.8702 161.93 61.623 156.763C60.9588 199.866 44.649 228.871 59.04 241.64Z" fill="#EEF5FF"/>
<path d="M256.16 182.964C240.293 158.313 242.064 230.938 212.913 198.685C177.046 159.051 125.608 145.766 148.117 176.1C170.626 206.435 157.194 216.915 100.442 182.964C59.2614 158.313 135.202 232.193 114.39 229.388C93.5784 226.583 62.1396 220.827 89.0766 241.714H263.466C263.466 241.64 272.027 207.615 256.16 182.964Z" fill="#E3EEFF"/>
<path d="M289.148 241.861H302.211C309.074 231.012 312.838 201.859 303.244 170.27C301.621 165.03 299.702 159.716 297.266 154.328C293.65 198.759 278.005 228.65 289.148 241.861Z" fill="#EEF5FF"/>
<path d="M313.281 241.861H300.218C294.167 233.816 292.322 212.339 304.13 188.943C306.122 185.031 308.41 181.119 311.215 177.208C311.731 209.977 325.31 232.119 313.281 241.861Z" fill="#EEF5FF"/>
<path d="M279.702 241.861H290.551C295.569 235.219 297.045 217.432 287.303 198.095C285.68 194.847 283.761 191.6 281.473 188.352C280.957 215.513 269.739 233.816 279.702 241.861Z" fill="#EEF5FF"/>
<path d="M102.582 241.64C102.582 241.64 101.844 236.326 93.7998 233.595C97.1208 237.433 96.3828 241.64 96.3828 241.64H102.582Z" fill="#EEF5FF"/>
<path d="M140.81 241.64C140.81 241.64 141.548 236.326 149.593 233.595C146.272 237.433 147.01 241.64 147.01 241.64H140.81Z" fill="white"/>
<path d="M243.319 241.64C243.319 241.64 243.835 231.307 249.37 225.993C247.082 233.448 247.599 241.64 247.599 241.64H243.319Z" fill="white"/>
<path d="M320.218 241.64C320.218 241.64 322.801 234.186 334.831 230.422C329.074 235.809 328.853 241.64 328.853 241.64H320.218Z" fill="#EEF9FF"/>
<path d="M49.815 241.64C49.815 241.64 47.7486 230.717 62.4348 225.107C58.2282 233.005 62.5086 241.64 62.5086 241.64H49.815Z" fill="#E3EEFF"/>
<path d="M57.933 241.64C57.933 241.64 53.8002 232.709 38.8188 228.134C46.4202 234.628 47.5272 241.64 47.5272 241.64H57.933Z" fill="#E3EEFF"/>
<path d="M107.158 241.64C107.158 241.64 106.641 232.709 96.8256 229.462C101.18 234.038 100.958 241.64 100.958 241.64H107.158Z" fill="#EEF5FF"/>
<path d="M191.585 241.64C191.585 241.64 190.33 232.783 176.899 228.207C182.434 234.628 181.179 241.64 181.179 241.64H191.585Z" fill="#EEF5FF"/>
<path d="M192.028 241.64C192.028 241.64 193.282 232.783 206.714 228.207C201.179 234.628 202.433 241.64 202.433 241.64H192.028Z" fill="#EEF5FF"/>
<path d="M199.334 241.64C199.334 241.64 198.448 226.731 182.065 221.27C189.371 228.945 188.928 241.64 188.928 241.64H199.334Z" fill="#EEF5FF"/>
<path d="M292.691 241.64C292.691 241.64 292.027 237.802 300.071 235.071C296.75 238.909 298.89 241.64 298.89 241.64H292.691Z" fill="white"/>
<path d="M292.469 241.64C292.469 241.64 291.731 236.326 283.687 233.595C287.008 237.433 286.27 241.64 286.27 241.64H292.469Z" fill="white"/>
<path d="M288.041 241.64C288.041 241.64 288.558 232.709 298.373 229.462C294.019 234.038 294.241 241.64 294.241 241.64H288.041Z" fill="white"/>
<path d="M321.325 36.1648C319.406 32.7697 315.495 30.1865 312.617 30.3341C311.51 30.4079 310.772 30.8508 310.329 31.515C305.089 27.3081 299.038 24.7249 294.093 25.0201C291.584 25.1677 289.591 26.0534 288.263 27.4557C282.654 21.1084 275.495 16.6063 270.256 16.6063C267.304 16.6063 265.459 18.0824 264.794 20.518C259.038 16.2373 253.06 13.6541 248.337 13.6541C240.736 13.6541 238.226 20.2966 241.326 29.5961C240.071 31.3674 234.094 33.803 234.315 36.7552H321.694C321.547 36.6076 321.473 36.3862 321.325 36.1648Z" fill="#F3F8FF"/>
<path d="M236.234 70.9273C234.832 71.0011 233.798 71.7391 233.282 72.92C226.123 66.0561 218.079 61.923 211.585 62.3658C208.264 62.5872 205.754 63.9895 204.057 66.2775C196.382 56.0185 186.714 48.7117 179.924 48.7117C176.013 48.7117 173.725 51.0735 173.061 54.9852C165.238 48.0475 157.342 43.8406 151.069 43.8406C143.32 43.8406 139.851 50.3355 140.958 60.4469C137.194 57.4946 133.578 55.7971 130.552 55.7971C126.419 55.7971 124.501 59.1183 124.796 64.2847C124.427 64.2847 124.058 64.2847 123.689 64.3585C117.342 65.2442 114.907 71.8867 118.006 79.5625H247.525C244.647 74.4699 239.776 70.7058 236.234 70.9273Z" fill="#F3F8FF"/>
<path d="M110.405 38.748C109.741 38.8218 109.224 39.117 109.003 39.7074C105.534 36.3862 101.623 34.3196 98.4492 34.541C96.8256 34.6148 95.6448 35.3529 94.7592 36.46C90.9954 31.4412 86.2722 27.8985 82.9512 27.8985C81.0324 27.8985 79.9254 29.0794 79.6302 30.9984C75.7926 27.6033 71.955 25.5367 68.9292 25.5367C65.1654 25.5367 63.468 28.7104 63.9846 33.5816C62.1396 32.1793 60.3684 31.2936 58.8924 31.2936C56.8998 31.2936 55.9404 32.9173 56.088 35.4267C55.9404 35.4267 55.719 35.4267 55.5714 35.5005C52.4718 35.9433 51.291 39.1908 52.767 42.8811H115.94C114.538 40.5193 112.176 38.6742 110.405 38.748Z" fill="#F3F8FF"/>
<path d="M184.5 275C263.531 275 327.598 271.266 327.598 266.66C327.598 262.054 263.531 258.32 184.5 258.32C105.469 258.32 41.4018 262.054 41.4018 266.66C41.4018 271.266 105.469 275 184.5 275Z" fill="#F0F6FF"/>
<path d="M130.552 80.8173H123.541V266.66H130.552V80.8173Z" fill="#D1E3FF"/>
<path d="M130.552 80.8173H123.541V97.645H130.552V80.8173Z" fill="#D1E3FF"/>
<path d="M157.489 104.14H96.6042C92.1024 104.14 88.4124 100.45 88.4124 95.9474V14.0969C88.4124 9.59477 92.1024 5.90448 96.6042 5.90448H157.489C161.991 5.90448 165.681 9.59477 165.681 14.0969V95.9474C165.681 100.45 161.991 104.14 157.489 104.14Z" fill="#D1E3FF"/>
<path d="M92.8404 95.0618V15.0564C92.8404 12.2518 95.1282 9.89001 98.0064 9.89001H157.12C159.925 9.89001 162.286 12.178 162.286 15.0564V95.0618C162.286 97.8664 159.998 100.228 157.12 100.228H98.0064C95.1282 100.154 92.8404 97.8664 92.8404 95.0618Z" fill="#1763D1"/>
<path d="M279.997 177.208L273.872 220.162L273.281 224.443H269.37L269.96 220.162L276.086 177.208H279.997Z" fill="#D1E3FF"/>
<path d="M112.914 177.208L106.789 220.162L106.198 224.443H102.287L102.877 220.162L109.003 177.208H112.914Z" fill="#D1E3FF"/>
<path d="M254.979 220.162L254.389 224.443L251.068 266.66H247.23L250.477 224.443L251.068 220.162H254.979Z" fill="#D1E3FF"/>
<path d="M87.8958 220.162L87.3054 224.443L83.9844 266.66H80.1468L83.394 224.443L83.9844 220.162H87.8958Z" fill="#D1E3FF"/>
<path d="M107.6 220.162L108.191 224.443L111.512 266.66H115.349L112.102 224.443L111.512 220.162H107.6Z" fill="#D1E3FF"/>
<path d="M274.684 220.162L275.274 224.443L278.595 266.66H282.433L279.185 224.443L278.595 220.162H274.684Z" fill="#D1E3FF"/>
<path d="M285.606 183.186H107.01L110.331 171.229H288.853L285.606 183.186Z" fill="#197BDD"/>
<path d="M281.473 183.186H102.877L106.198 171.229H284.794L281.473 183.186Z" fill="#4EA4F9"/>
<path d="M283.097 198.094H104.501L107.822 186.138H286.418L283.097 198.094Z" fill="#197BDD"/>
<path d="M279.038 198.094H100.442L103.763 186.138H282.285L279.038 198.094Z" fill="#4EA4F9"/>
<path d="M280.588 213.003H101.992L105.313 201.047H283.909L280.588 213.003Z" fill="#197BDD"/>
<path d="M276.529 213.003H97.9326L101.254 201.047H279.85L276.529 213.003Z" fill="#4EA4F9"/>
<path d="M259.481 220.162H81.6966V224.443H259.481V220.162Z" fill="#4EA4F9"/>
<path d="M283.909 220.162H259.481V224.443H283.909V220.162Z" fill="#197BDD"/>
<path d="M149.371 268.431H154.685L155.349 256.106H150.035L149.371 268.431Z" fill="#FF8B7B"/>
<path d="M149.076 265.258H155.054C155.275 265.258 155.423 265.405 155.497 265.627L156.308 270.35C156.382 270.867 156.013 271.31 155.497 271.31C153.43 271.31 152.397 271.162 149.74 271.162C148.117 271.162 142.729 271.31 140.515 271.31C138.301 271.31 138.08 269.096 139.039 268.874C143.172 267.989 146.788 266.734 148.19 265.553C148.412 265.405 148.707 265.258 149.076 265.258Z" fill="#14365B"/>
<path d="M200.662 162.889C198.817 166.875 196.825 170.713 194.832 174.624C192.839 178.462 190.699 182.374 188.485 186.138L187.673 187.54L187.452 187.909L187.157 188.426C186.935 188.795 186.714 189.016 186.493 189.312C185.607 190.419 184.721 191.231 183.836 192.042C182.065 193.592 180.22 194.921 178.375 196.249C174.685 198.759 170.921 201.047 166.936 203.039L164.722 199.718C168.043 196.987 171.364 194.183 174.463 191.378C176.013 189.976 177.563 188.5 178.965 187.097C179.629 186.359 180.22 185.621 180.662 185.031C180.736 184.883 180.884 184.736 180.884 184.588L181.179 184.071L181.917 182.669C185.755 174.993 189.445 167.096 193.356 159.42L200.662 162.889Z" fill="#FF8B7B"/>
<path d="M202.876 158.977C204.426 163.775 194.611 177.798 194.611 177.798L184.205 171.967C184.205 171.967 187.083 164.956 190.994 159.494C195.127 153.885 201.179 153.737 202.876 158.977Z" fill="#1763D1"/>
<path d="M203.024 159.568C200.957 158.608 198.596 159.42 196.013 163.332C193.504 167.244 191.216 173.886 190.921 175.731L194.537 177.798C194.611 177.798 203.688 164.808 203.024 159.568Z" fill="#2B6AD8"/>
<path d="M164.943 199.571L159.998 202.449L163.615 207.763C163.615 207.763 167.452 205.844 167.895 201.859L164.943 199.571Z" fill="#FF8B7B"/>
<path d="M156.751 208.944L160.81 208.501L163.541 207.763L159.925 202.449L156.751 208.944Z" fill="#FF8B7B"/>
<path d="M150.035 256.106H155.349L155.054 262.453H149.666L150.035 256.106Z" fill="#EA7063"/>
<path d="M226.64 155.066C226.492 155.73 226.271 156.468 226.123 157.132C226.123 157.132 226.123 157.132 226.123 157.206C224.942 162.225 224.204 167.244 223.688 171.967C222.138 186.212 222.876 198.316 222.581 201.49H194.02C189.592 171.451 196.751 155.361 196.751 155.361C196.751 155.361 199.112 154.697 202.138 154.254C203.024 154.106 204.057 153.959 205.016 153.885C208.264 153.59 213.503 153.737 217.12 153.885C218.005 153.959 218.891 154.033 219.703 154.106C223.466 154.402 226.64 155.066 226.64 155.066Z" fill="#1763D1"/>
<path d="M226.123 157.059C226.123 157.132 226.123 157.132 226.123 157.132C224.942 162.151 224.204 167.17 223.688 171.893C220.588 167.539 219.703 162.963 220.219 160.085C220.81 156.985 224.278 156.911 226.123 157.059Z" fill="#2B6AD8"/>
<path d="M219.776 154.033L218.965 155.14C218.817 155.361 215.127 160.38 207.304 161.782L206.64 161.93L205.976 161.635C203.54 160.454 202.138 158.904 201.843 156.985C201.695 155.951 201.917 154.992 202.212 154.254C203.098 154.106 204.131 153.959 205.09 153.885C208.337 153.59 213.577 153.737 217.193 153.885C218.005 153.885 218.891 153.959 219.776 154.033Z" fill="#D1E3FF"/>
<path d="M216.677 140.231C215.717 144.143 214.61 151.302 217.193 153.885C217.193 153.885 213.946 158.313 206.935 159.642C201.622 157.132 205.09 153.885 205.09 153.885C209.518 152.852 209.518 149.604 208.928 146.578L216.677 140.231Z" fill="#FF8B7B"/>
<path d="M213.503 142.814L208.928 146.578C209.075 147.316 209.149 148.054 209.223 148.718C210.92 148.497 213.282 146.652 213.577 144.881C213.577 143.995 213.577 143.183 213.503 142.814Z" fill="#EA7063"/>
<path d="M204.869 128.2C202.212 129.308 200.367 136.688 203.614 138.386C206.935 140.009 209.961 126.06 204.869 128.2Z" fill="#0F264C"/>
<path d="M217.415 134.326C216.824 139.64 216.751 142.74 213.946 145.397C209.74 149.457 203.319 147.021 202.36 141.781C201.474 137.057 202.581 129.16 207.895 127.093C213.061 125.027 218.005 129.012 217.415 134.326Z" fill="#FF8B7B"/>
<path d="M213.282 122.739C216.16 120.894 220.588 122.739 219.703 125.248C218.3 129.234 221.99 125.396 221.917 130.193C221.917 133.293 218.374 140.674 216.234 140.452C214.02 140.231 213.134 136.319 214.537 131.965C215.57 128.717 212.765 129.972 208.78 130.415C200.588 131.226 194.98 120.525 204.426 121.115C213.503 121.706 212.544 116.687 212.544 116.687C212.544 116.687 215.791 122.001 210.625 122.075C205.385 122.075 207.304 126.503 213.282 122.739Z" fill="#0F264C"/>
<path d="M219.481 140.157C218.669 141.338 217.415 142.15 216.234 142.371C214.463 142.74 213.799 141.19 214.463 139.64C215.053 138.238 216.677 136.319 218.3 136.614C219.998 136.909 220.441 138.755 219.481 140.157Z" fill="#FF8B7B"/>
<path d="M218.227 126.798C218.965 126.651 220.588 126.355 221.695 124.436C221.695 124.436 221.843 128.643 218.227 126.798Z" fill="#0F264C"/>
<path d="M194.02 201.416C194.02 201.416 157.12 200.161 152.176 214.848C146.788 230.938 147.895 260.682 147.895 260.682H157.12C157.12 260.682 160.663 239.426 163.098 228.65C165.607 217.432 201.695 222.524 206.271 218.465C209.887 215.217 211.732 209.682 212.249 201.416C201.179 201.416 194.02 201.416 194.02 201.416Z" fill="#000042"/>
<path d="M157.784 260.903H147.305L147.01 257.582L158.449 257.877L157.784 260.903Z" fill="#407BFF"/>
<path d="M198.522 268.431H193.208L189.297 256.106H194.611L198.522 268.431Z" fill="#FF8B7B"/>
<path d="M192.175 265.258H198.153C198.374 265.258 198.522 265.405 198.596 265.627L199.408 270.35C199.481 270.867 199.112 271.31 198.596 271.31C196.529 271.31 195.496 271.162 192.839 271.162C191.216 271.162 185.828 271.31 183.614 271.31C181.4 271.31 181.179 269.096 182.138 268.874C186.271 267.989 189.887 266.734 191.29 265.553C191.511 265.405 191.88 265.258 192.175 265.258Z" fill="#14365B"/>
<path d="M194.611 256.106H189.297L191.29 262.453H196.603L194.611 256.106Z" fill="#EA7063"/>
<path d="M190.404 266.217C189.961 266.217 189.592 266.143 189.371 265.922C189.149 265.774 189.076 265.553 189.149 265.258C189.149 265.036 189.297 264.962 189.371 264.889C189.961 264.593 191.659 265.627 191.806 265.774C191.88 265.774 191.88 265.848 191.88 265.922C191.88 265.996 191.806 265.996 191.806 265.996C191.437 266.069 190.847 266.217 190.404 266.217ZM189.666 265.11C189.592 265.11 189.518 265.11 189.518 265.11C189.518 265.11 189.445 265.184 189.445 265.258C189.445 265.479 189.445 265.627 189.592 265.7C189.887 265.922 190.552 265.996 191.437 265.774C190.773 265.479 190.035 265.11 189.666 265.11Z" fill="#0053CC"/>
<path d="M191.732 265.996C191.142 265.7 190.109 264.52 190.256 263.929C190.256 263.781 190.33 263.634 190.699 263.56C190.921 263.56 191.068 263.56 191.216 263.708C191.806 264.224 191.88 265.774 191.88 265.848C191.88 265.922 191.88 265.996 191.732 265.996C191.806 265.996 191.806 265.996 191.732 265.996ZM190.773 263.855C190.552 263.855 190.552 263.929 190.552 264.003C190.478 264.372 191.068 265.184 191.585 265.627C191.511 265.11 191.363 264.298 191.068 264.003C190.994 263.855 190.847 263.855 190.773 263.855Z" fill="#0053CC"/>
<path d="M204.131 201.416C204.131 201.416 167.895 203.261 170.478 218.539C173.282 235.293 188.854 260.682 188.854 260.682H198.153C198.153 260.682 191.806 236.252 188.854 225.624C186.788 218.243 211.954 222.524 216.529 218.465C220.145 215.217 221.99 209.682 222.507 201.416C211.437 201.416 204.131 201.416 204.131 201.416Z" fill="#000058"/>
<path d="M198.743 260.903H188.264L186.197 257.582H198.67L198.743 260.903Z" fill="#407BFF"/>
<path d="M209.297 135.802C209.297 136.245 209.002 136.614 208.78 136.614C208.559 136.614 208.264 136.245 208.337 135.802C208.337 135.36 208.633 134.991 208.854 134.991C209.075 134.991 209.371 135.36 209.297 135.802Z" fill="#0F264C"/>
<path d="M204.426 135.802C204.426 136.245 204.131 136.614 203.909 136.614C203.688 136.614 203.393 136.245 203.467 135.802C203.467 135.36 203.762 134.991 203.983 134.991C204.205 134.991 204.5 135.36 204.426 135.802Z" fill="#0F264C"/>
<path d="M205.976 136.024C205.976 136.024 204.869 138.533 203.762 139.714C204.5 140.452 205.828 140.083 205.828 140.083L205.976 136.024Z" fill="#FF5652"/>
<path d="M210.109 142.15C210.182 142.224 210.182 142.297 210.109 142.297C210.035 142.371 209.961 142.371 209.961 142.297C208.485 141.117 206.861 141.633 206.861 141.633C206.788 141.633 206.714 141.633 206.714 141.559C206.714 141.486 206.714 141.412 206.788 141.412C206.861 141.412 208.559 140.969 210.109 142.15Z" fill="#0F264C"/>
<path d="M210.92 134.253C210.847 134.253 210.773 134.179 210.699 134.179C210.109 133.293 209.149 133.367 209.149 133.367C209.002 133.367 208.854 133.293 208.854 133.145C208.854 132.998 208.928 132.85 209.075 132.85C209.149 132.85 210.33 132.776 211.068 133.884C211.142 134.031 211.142 134.179 210.994 134.253H210.92Z" fill="#0F264C"/>
<path d="M202.433 134.105C202.36 134.105 202.36 134.105 202.286 134.105C202.138 134.031 202.138 133.883 202.212 133.736C202.876 132.481 204.057 132.333 204.057 132.333C204.205 132.333 204.352 132.407 204.352 132.555C204.352 132.703 204.278 132.85 204.131 132.85C204.057 132.85 203.171 132.998 202.655 134.031C202.581 134.105 202.507 134.105 202.433 134.105Z" fill="#0F264C"/>
<path d="M225.164 157.058C226.197 157.28 227.009 157.501 227.894 157.723C228.78 157.944 229.666 158.239 230.477 158.461C232.175 158.977 233.946 159.642 235.643 160.306C237.341 160.97 239.038 161.708 240.662 162.594C241.474 163.037 242.285 163.479 243.097 163.922C243.466 164.144 243.909 164.439 244.278 164.66L244.868 165.029C244.942 165.029 245.237 165.251 245.459 165.398C245.68 165.546 245.902 165.767 246.123 165.989C246.935 166.801 247.451 167.908 247.599 168.793C247.82 169.679 247.82 170.417 247.747 171.081C247.673 172.41 247.378 173.443 247.009 174.476C246.344 176.395 245.459 178.093 244.499 179.643C242.654 182.817 240.514 185.621 238.153 188.352L234.905 186.064C236.455 183.112 237.931 180.012 239.186 176.986C239.776 175.51 240.293 173.96 240.588 172.558C240.736 171.893 240.809 171.229 240.809 170.86C240.809 170.639 240.736 170.565 240.736 170.639C240.736 170.639 240.809 170.934 241.031 171.155C241.105 171.229 241.105 171.229 241.178 171.303C241.178 171.303 241.326 171.45 241.178 171.303L240.662 171.008C240.293 170.86 239.998 170.639 239.629 170.491C238.891 170.196 238.153 169.827 237.415 169.532C235.939 168.867 234.389 168.351 232.839 167.76C231.289 167.244 229.739 166.727 228.19 166.21C227.378 165.989 226.64 165.767 225.828 165.546L223.54 164.956L225.164 157.058Z" fill="#FF8B7B"/>
<path d="M221.4 155.509C225.311 152.261 239.481 159.937 239.481 159.937L231.142 170.417C231.142 170.417 229.666 170.048 223.762 167.391C217.562 164.587 217.193 158.977 221.4 155.509Z" fill="#1763D1"/>
<path d="M147.231 266.217C146.788 266.217 146.419 266.143 146.198 265.922C145.976 265.774 145.903 265.553 145.976 265.258C145.976 265.036 146.124 264.962 146.198 264.889C146.788 264.593 148.486 265.627 148.633 265.774C148.707 265.774 148.707 265.848 148.707 265.922C148.707 265.996 148.633 265.996 148.633 265.996C148.264 266.069 147.748 266.217 147.231 266.217ZM146.493 265.11C146.419 265.11 146.345 265.11 146.345 265.11C146.345 265.11 146.272 265.184 146.272 265.258C146.272 265.479 146.272 265.627 146.419 265.7C146.714 265.922 147.379 265.996 148.264 265.774C147.674 265.479 146.936 265.11 146.493 265.11Z" fill="#0053CC"/>
<path d="M148.633 265.996C148.633 265.996 148.559 265.996 148.633 265.996C148.043 265.7 147.01 264.52 147.157 263.929C147.157 263.781 147.231 263.634 147.6 263.56C147.821 263.56 147.969 263.56 148.117 263.708C148.707 264.224 148.781 265.774 148.781 265.848C148.781 265.922 148.707 265.996 148.633 265.996ZM147.674 263.855C147.6 263.855 147.6 263.855 147.674 263.855C147.452 263.855 147.452 263.929 147.452 264.003C147.379 264.372 147.969 265.184 148.486 265.627C148.412 265.11 148.264 264.298 147.969 264.003C147.821 263.855 147.748 263.855 147.674 263.855Z" fill="#0053CC"/>
<path d="M234.389 186.212L231.142 190.493L237.784 190.935C237.784 190.935 239.998 186.581 237.636 185.621L234.389 186.212Z" fill="#FF8B7B"/>
<path d="M231.511 196.545L237.046 196.692L237.784 191.009L231.142 190.566L231.511 196.545Z" fill="#FF8B7B"/>
<path d="M204.057 178.388C203.393 178.388 202.729 178.093 202.212 177.576C201.179 176.543 200.662 174.624 200.884 172.41C201.179 168.941 203.171 166.063 205.385 165.841C206.197 165.768 206.935 166.063 207.526 166.653C208.559 167.686 209.075 169.605 208.854 171.82C208.559 175.288 206.566 178.167 204.352 178.388C204.205 178.388 204.131 178.388 204.057 178.388ZM205.533 166.579C205.459 166.579 205.385 166.579 205.385 166.579C203.614 166.727 201.843 169.458 201.548 172.484C201.4 174.403 201.769 176.174 202.729 177.06C203.171 177.503 203.688 177.724 204.278 177.65C206.05 177.503 207.821 174.772 208.116 171.746C208.264 169.827 207.895 168.056 206.935 167.17C206.492 166.801 206.05 166.579 205.533 166.579Z" fill="#D1E3FF"/>
<path d="M144.058 204.958L143.024 220.162H135.349L135.128 217.136L134.537 207.984L134.316 204.958H144.058Z" fill="#0053CC"/>
<path d="M144.869 204.442H133.504V205.401H144.869V204.442Z" fill="#D1E3FF"/>
<path d="M144.131 203.482H134.168V204.442H144.131V203.482Z" fill="#D1E3FF"/>
<path d="M138.744 207.984V217.136H135.054L134.464 207.984H138.744Z" fill="#D1E3FF"/>
<path d="M127.526 85.5407C109.888 85.5407 95.7924 71.5177 95.4972 54.0995C95.202 35.8695 109.593 21.625 127.231 21.4774C145.091 21.3298 159.26 35.5743 159.556 53.0662C159.777 71.0748 145.386 85.4669 127.526 85.5407ZM134.537 65.3918C129.814 65.3918 125.165 65.3918 120.515 65.3918C120.515 65.4656 120.515 65.4656 120.515 65.4656C120.515 66.2774 120.515 67.1631 120.515 67.975C120.515 68.4916 120.368 69.0083 120.073 69.4511C119.408 70.3368 118.375 70.632 117.342 70.263C116.456 69.9677 115.866 69.0083 115.866 67.975C115.866 67.3107 115.866 66.7203 115.866 66.056C115.866 65.8346 115.866 65.6132 115.866 65.3918C114.464 65.3918 113.062 65.3918 111.659 65.3918C111.659 65.318 111.659 65.1704 111.659 65.0966C111.659 61.6277 111.659 58.2326 111.659 54.7638C111.659 54.6161 111.659 54.5423 111.659 54.3947C111.807 52.6234 112.028 50.8521 112.176 49.0807C112.25 48.2689 112.324 47.3832 112.397 46.5713C112.545 45.3166 112.619 44.0619 112.766 42.8072C112.766 42.7334 112.693 42.5858 112.619 42.512C112.028 41.9216 111.438 41.3311 110.848 40.7407C109.962 39.855 109.076 38.8955 108.117 38.0099C107.748 37.567 107.305 37.198 106.936 36.7552C98.523 46.8666 98.4492 63.6943 110.479 73.7318C121.696 83.179 136.382 80.6696 144.058 74.0271C142.36 72.3295 140.663 70.7058 138.965 69.0083C138.965 69.0821 138.892 69.1559 138.818 69.2297C137.932 70.5582 136.235 70.7058 135.128 69.5987C134.685 69.1559 134.464 68.5654 134.464 67.9012C134.537 67.1631 134.537 66.2774 134.537 65.3918ZM110.995 32.8435C111.069 32.9173 111.069 32.9173 111.143 32.9911C112.693 34.541 114.242 36.1647 115.866 37.7146C115.94 37.7885 116.087 37.7885 116.161 37.7885C116.678 37.7146 117.268 37.567 117.785 37.4932C119.482 37.2718 121.106 36.9766 122.803 36.7552C123.836 36.6076 124.796 36.6076 125.829 36.5338C127.6 36.3861 129.445 36.4599 131.216 36.6076C132.471 36.6814 133.799 36.9028 135.054 37.0504C136.087 37.198 137.194 37.4194 138.227 37.567C138.67 37.6408 139.113 37.7885 139.63 37.8623C140.663 37.9361 141.696 38.6741 141.991 39.7074C142.139 40.3717 142.213 41.1097 142.286 41.774C142.434 42.9548 142.508 44.1357 142.655 45.3166C142.803 46.7927 142.951 48.1951 143.098 49.6712C143.172 50.5568 143.246 51.4425 143.393 52.3282C143.467 53.0662 143.615 53.8781 143.615 54.6161C143.615 58.085 143.615 61.6277 143.615 65.0966C143.615 65.1704 143.615 65.318 143.541 65.4656C145.091 66.9417 146.641 68.5654 148.264 70.1153C151.364 66.4989 154.168 60.5206 154.168 53.7305C154.168 45.6857 151.142 38.8955 145.165 33.5815C134.611 24.5034 119.777 25.4629 110.995 32.8435ZM119.408 41.4049C119.482 41.4787 119.556 41.5525 119.556 41.5525C120.884 42.881 122.139 44.1357 123.467 45.4642C124.427 46.4237 125.386 47.3832 126.346 48.3427C127.084 49.0807 127.895 49.8926 128.633 50.6306C129.15 51.1473 129.667 51.6639 130.183 52.1806C130.257 52.2544 130.331 52.2544 130.478 52.2544C132.766 52.2544 135.128 52.2544 137.416 52.2544C138.892 52.2544 139.999 50.9259 139.925 49.4497C139.851 48.6379 139.777 47.8998 139.703 47.088C139.63 46.2761 139.556 45.4642 139.482 44.5786C139.408 44.0619 139.408 43.4715 139.187 42.9549C138.744 41.774 137.785 41.2573 136.53 41.2573C130.995 41.2573 125.534 41.2573 119.999 41.2573C119.925 41.4049 119.704 41.4049 119.408 41.4049ZM127.453 40.0026C129.667 40.0026 131.881 40.0026 134.095 40.0026C134.242 40.0026 134.316 40.0026 134.464 40.0026C135.054 39.9288 135.423 39.2646 135.128 38.6741C134.906 38.3051 134.611 38.2313 134.168 38.2313C130.478 38.2313 126.715 38.2313 123.025 38.2313C122.213 38.2313 121.475 38.2313 120.663 38.2313C120.294 38.2313 119.999 38.3789 119.777 38.7479C119.482 39.3384 119.925 40.0026 120.589 40.0026C122.951 40.0026 125.239 40.0026 127.453 40.0026ZM122.287 52.3282C122.287 52.3282 122.287 52.2544 122.36 52.2544C120.073 49.9664 117.785 47.6784 115.423 45.3904C115.423 45.4642 115.423 45.538 115.423 45.6119C115.349 46.8666 115.202 48.1212 115.128 49.3759C114.98 50.9997 116.161 52.3282 117.785 52.3282C118.892 52.3282 119.925 52.3282 121.032 52.3282C121.475 52.3282 121.844 52.3282 122.287 52.3282ZM117.932 57.4208C116.53 57.4208 115.349 58.5278 115.349 59.9302C115.349 61.3325 116.456 62.5134 117.859 62.5134C119.261 62.5134 120.442 61.4063 120.442 60.004C120.442 58.6017 119.335 57.4946 117.932 57.4208ZM135.792 57.8636C136.973 59.0445 138.154 60.1516 139.261 61.3325C139.925 60.373 139.703 58.9707 138.818 58.1588C138.006 57.347 136.604 57.1993 135.792 57.8636Z" fill="white"/>
</g>
<defs>
<clipPath id="clip0">
<rect width="369" height="275" fill="white"/>
</clipPath>
</defs>
</svg>
