<svg width="250" height="78" viewBox="0 0 250 78" fill="none" xmlns="http://www.w3.org/2000/svg">
<path d="M18.601 3.12C18.625 3.216 18.637 3.336 18.637 3.48C18.637 3.792 18.493 4.02 18.205 4.164C18.061 4.212 17.773 4.308 17.341 4.452C16.933 4.572 16.597 4.632 16.333 4.632C16.117 4.632 15.949 4.608 15.829 4.56C15.589 4.344 15.301 4.188 14.965 4.092C14.629 3.996 13.933 3.912 12.877 3.84C12.565 3.888 12.289 3.912 12.049 3.912C11.809 3.912 11.617 3.924 11.473 3.948C11.281 4.572 11.041 5.16 10.753 5.712C10.657 6.168 10.525 6.576 10.357 6.936C10.189 7.416 10.117 7.692 10.141 7.764C10.069 7.86 9.84095 8.472 9.45695 9.6C9.07295 10.704 8.71295 11.784 8.37695 12.84C8.13695 13.584 7.95695 14.124 7.83695 14.46C7.71695 14.7 7.56095 15.084 7.36895 15.612C7.20095 16.116 7.08095 16.476 7.00895 16.692L6.10895 19.176C5.91695 19.536 5.67695 20.112 5.38895 20.904C5.12495 21.672 4.90895 22.368 4.74095 22.992C4.47695 23.928 4.23695 24.6 4.02095 25.008C3.82895 25.416 3.66095 25.668 3.51695 25.764C3.37295 25.86 3.16895 25.908 2.90495 25.908C2.52095 25.908 2.18495 25.716 1.89695 25.332C1.60895 24.948 1.46495 24.588 1.46495 24.252C1.46495 23.724 1.64495 22.836 2.00495 21.588C2.38895 20.34 2.74895 19.344 3.08495 18.6C3.18095 18.168 3.26495 17.82 3.33695 17.556C3.43295 17.292 3.49295 17.1 3.51695 16.98C3.58895 16.884 3.69695 16.632 3.84095 16.224C4.00895 15.792 4.14095 15.396 4.23695 15.036C4.30895 14.604 5.05295 12.192 6.46895 7.8L6.72095 7.044C6.93695 6.684 7.14095 6.228 7.33295 5.676C7.52495 5.556 7.62095 5.304 7.62095 4.92C7.62095 4.848 7.65695 4.752 7.72895 4.632C7.82495 4.512 7.87295 4.428 7.87295 4.38C7.89695 4.356 7.93295 4.344 7.98095 4.344C8.00495 4.344 8.02895 4.356 8.05295 4.38C8.10095 4.38 8.17295 4.332 8.26895 4.236H8.23295L6.46895 4.416L5.67695 4.488C4.26095 4.608 3.45695 4.692 3.26495 4.74L2.76095 4.776C2.01695 4.776 1.48895 4.632 1.17695 4.344C0.888953 4.032 0.792953 3.684 0.888954 3.3C0.960953 2.988 1.14095 2.736 1.42895 2.544C1.74095 2.352 2.24495 2.184 2.94095 2.04C3.15695 1.992 3.57695 1.92 4.20095 1.824L5.17295 1.644L6.39695 1.5C7.78895 1.284 9.26495 1.14 10.825 1.068C11.473 1.044 12.013 1.02 12.445 0.995998C12.901 0.947999 13.201 0.911999 13.345 0.887999C13.681 0.911999 14.221 0.971999 14.965 1.068C15.733 1.164 16.285 1.272 16.621 1.392C17.149 1.512 17.581 1.728 17.917 2.04C18.253 2.352 18.481 2.712 18.601 3.12ZM20.2269 23.928C20.0109 23.712 19.8309 23.436 19.6869 23.1C19.5669 22.74 19.4109 22.2 19.2189 21.48C19.1709 21.336 19.1469 21.132 19.1469 20.868C19.1469 20.58 19.1469 20.376 19.1469 20.256C19.0509 20.472 18.9309 20.712 18.7869 20.976C18.6429 21.216 18.4989 21.384 18.3549 21.48C17.8029 22.032 17.2509 22.44 16.6989 22.704C15.9309 23.184 15.2709 23.424 14.7189 23.424C14.0469 23.424 13.4709 23.112 12.9909 22.488C12.2229 21.864 11.8389 21.12 11.8389 20.256C11.8389 20.136 11.8629 19.908 11.9109 19.572C11.9589 18.684 12.0789 17.832 12.2709 17.016C12.4869 16.2 12.8829 15.156 13.4589 13.884L14.5389 11.724L15.1149 10.608C15.2349 10.56 15.4269 10.536 15.6909 10.536C16.0749 10.536 16.4349 10.608 16.7709 10.752C17.1069 10.896 17.2869 11.088 17.3109 11.328C17.3829 11.424 17.4189 11.604 17.4189 11.868C17.4189 12.636 17.0949 13.656 16.4469 14.928L16.1589 15.612C15.7269 16.644 15.4149 17.448 15.2229 18.024C15.0309 18.6 14.9349 19.08 14.9349 19.464C14.9349 19.848 15.0789 20.1 15.3669 20.22C15.4869 20.292 15.6309 20.328 15.7989 20.328C16.2789 20.328 16.8549 19.956 17.5269 19.212C18.2229 18.468 18.9309 17.22 19.6509 15.468C19.9869 14.652 20.1909 13.812 20.2629 12.948C20.2149 12.684 20.2869 12.396 20.4789 12.084C20.6709 11.772 20.9229 11.52 21.2349 11.328C21.3309 11.184 21.4629 11.076 21.6309 11.004C21.7989 10.908 21.9069 10.908 21.9549 11.004L22.5309 10.968C22.6029 10.944 22.7109 11.052 22.8549 11.292C23.0229 11.532 23.1429 11.676 23.2149 11.724C23.4549 11.916 23.5749 12.3 23.5749 12.876C23.5749 13.668 23.2869 14.76 22.7109 16.152C22.2549 17.112 21.9429 17.856 21.7749 18.384C21.6309 18.888 21.5469 19.38 21.5229 19.86C21.5229 20.364 21.5589 20.76 21.6309 21.048C21.7269 21.312 21.9429 21.588 22.2789 21.876C22.6629 22.14 22.8189 22.764 22.7469 23.748C22.6989 23.916 22.5669 24.048 22.3509 24.144C22.1349 24.24 21.8709 24.288 21.5589 24.288C21.0309 24.288 20.5869 24.168 20.2269 23.928ZM51.0178 23.172C50.7058 23.172 50.4658 23.124 50.2978 23.028C50.1058 22.956 49.8538 22.788 49.5418 22.524C49.2538 22.236 48.9898 21.84 48.7498 21.336C48.5338 20.808 48.4258 20.184 48.4258 19.464C48.4258 19.008 48.4498 18.612 48.4978 18.276C48.5698 17.916 48.6058 17.688 48.6058 17.592C48.6058 17.472 48.5698 17.412 48.4978 17.412C47.8738 17.412 46.5178 18.552 44.4298 20.832C44.3578 20.88 44.2978 20.94 44.2498 21.012C43.9618 21.228 43.6978 21.456 43.4578 21.696C43.0978 22.032 42.7978 22.284 42.5578 22.452C42.3418 22.596 42.1018 22.68 41.8378 22.704C41.6698 22.704 41.4898 22.632 41.2978 22.488L40.9018 22.164C40.7818 22.092 40.6738 21.96 40.5778 21.768C40.4818 21.576 40.4338 21.396 40.4338 21.228V21.12V21.048L41.2618 18.636C41.8618 17.316 42.1618 16.536 42.1618 16.296C42.1618 16.248 42.1498 16.224 42.1258 16.224C41.9098 16.2 41.5858 16.392 41.1538 16.8C40.7458 17.184 40.1578 17.796 39.3898 18.636L37.7698 20.328C37.5778 20.52 37.0618 21.096 36.2218 22.056C35.6938 22.704 35.4178 23.028 35.3938 23.028C34.8658 23.028 34.3858 22.824 33.9538 22.416C33.5458 22.008 33.3418 21.516 33.3418 20.94C33.3418 20.652 33.3898 20.268 33.4858 19.788C33.5818 19.308 33.6898 18.804 33.8098 18.276C33.8578 18.084 33.9058 17.868 33.9538 17.628C34.0258 17.388 34.0978 17.112 34.1698 16.8C34.2178 16.56 34.2658 16.296 34.3138 16.008C34.3858 15.72 34.5178 15.348 34.7098 14.892C34.9018 14.412 35.1778 13.752 35.5378 12.912C35.6338 12.6 35.6818 12.276 35.6818 11.94C35.6818 11.772 35.6698 11.616 35.6458 11.472C35.6218 11.304 35.6098 11.196 35.6098 11.148C35.6098 10.788 35.7778 10.488 36.1138 10.248C36.4738 9.984 36.8698 9.852 37.3018 9.852C37.9258 9.852 38.3938 10.08 38.7058 10.536C39.0178 10.968 39.1738 11.424 39.1738 11.904C39.1738 12.312 39.0778 12.708 38.8858 13.092L38.4898 14.064C38.3938 14.28 38.2138 14.676 37.9498 15.252C37.7098 15.804 37.5898 16.14 37.5898 16.26C37.5898 16.332 37.6138 16.368 37.6618 16.368H37.6978C37.8178 16.368 38.0098 16.236 38.2738 15.972C39.0418 15.252 39.9658 14.508 41.0458 13.74C42.1498 12.948 42.9418 12.48 43.4218 12.336C43.6138 12.336 43.8658 12.432 44.1778 12.624C44.4898 12.816 44.7658 13.08 45.0058 13.416C45.2458 13.728 45.3658 14.076 45.3658 14.46L45.3298 14.748C45.3058 14.844 45.1978 15.252 45.0058 15.972C44.8378 16.692 44.7058 17.112 44.6098 17.232C45.0658 16.704 45.8578 16.056 46.9858 15.288C48.1138 14.496 48.9418 14.088 49.4698 14.064C50.2618 14.064 50.7778 14.388 51.0178 15.036C51.2578 15.684 51.4258 16.632 51.5218 17.88C51.6178 19.056 51.7498 19.848 51.9178 20.256C51.9658 20.4 52.1338 20.52 52.4218 20.616C52.7098 20.712 52.9378 20.832 53.1058 20.976C53.2978 21.096 53.3938 21.348 53.3938 21.732C53.3938 22.26 53.1538 22.632 52.6738 22.848C52.2178 23.064 51.6658 23.172 51.0178 23.172ZM57.9059 24.648C55.1699 24.648 53.8019 23.088 53.8019 19.968C53.8019 18.84 54.0779 17.568 54.6299 16.152C55.2059 14.712 55.9139 13.428 56.7539 12.3C57.6179 11.148 58.4699 10.38 59.3099 9.996C59.7659 9.756 60.2939 9.636 60.8939 9.636C61.9739 9.636 62.9099 9.876 63.7019 10.356C64.5179 10.812 64.9259 11.688 64.9259 12.984C64.9259 13.728 64.6739 14.544 64.1699 15.432C63.6659 16.32 63.0299 17.076 62.2619 17.7C61.5179 18.3 60.7859 18.6 60.0659 18.6C58.9859 18.6 58.0739 18.252 57.3299 17.556C56.9219 18.372 56.7179 19.152 56.7179 19.896C56.7179 20.496 56.7899 20.964 56.9339 21.3C57.0779 21.612 57.4139 21.768 57.9419 21.768C58.4459 21.768 58.8539 21.696 59.1659 21.552C59.4779 21.408 59.7659 21.24 60.0299 21.048C60.2939 20.856 60.4979 20.712 60.6419 20.616L60.7859 20.544H60.7499C61.1819 20.304 61.4939 20.124 61.6859 20.004C61.9019 19.86 62.0819 19.764 62.2259 19.716C62.5859 19.716 62.9219 19.824 63.2339 20.04C63.5459 20.256 63.7019 20.52 63.7019 20.832C63.7019 21.072 63.4859 21.468 63.0539 22.02C62.6219 22.548 62.1779 22.92 61.7219 23.136L61.2899 23.352H61.3259C61.1099 23.64 60.8939 23.784 60.6779 23.784H60.3899C60.2939 23.976 59.9699 24.168 59.4179 24.36C58.8899 24.552 58.3859 24.648 57.9059 24.648ZM59.7779 15.972C60.4499 15.972 61.0019 15.684 61.4339 15.108C61.8899 14.532 62.1179 13.956 62.1179 13.38C62.1179 13.116 62.0459 12.876 61.9019 12.66C61.7819 12.444 61.6139 12.336 61.3979 12.336C60.9899 12.336 60.5339 12.528 60.0299 12.912C59.5259 13.296 59.0819 13.8 58.6979 14.424L58.2299 15.18C58.3259 15.132 58.3979 15.108 58.4459 15.108C58.6379 15.108 58.7819 15.192 58.8779 15.36C58.9739 15.528 59.0819 15.672 59.2019 15.792C59.3219 15.912 59.5139 15.972 59.7779 15.972ZM72.3774 7.152C71.8734 7.152 71.4414 6.996 71.0814 6.684C70.7454 6.348 70.5774 5.976 70.5774 5.568C70.5774 5.352 70.7094 4.98 70.9734 4.452C70.9974 4.356 71.0694 4.164 71.1894 3.876C71.3094 3.588 71.3694 3.36 71.3694 3.192C71.9694 2.856 72.5454 2.688 73.0974 2.688C73.5294 2.688 73.8654 2.82 74.1054 3.084C74.3694 3.348 74.5254 3.708 74.5734 4.164C74.5734 4.788 74.3694 5.448 73.9614 6.144C73.5534 6.816 73.0254 7.152 72.3774 7.152ZM62.2254 32.388C61.1694 32.388 60.2934 31.932 59.5974 31.02C58.9014 30.132 58.5534 29.112 58.5534 27.96C58.5534 27.336 58.6974 26.916 58.9854 26.7C59.2734 26.484 59.5494 26.376 59.8134 26.376C59.9334 26.376 60.1374 26.556 60.4254 26.916C60.7134 27.276 60.8574 27.576 60.8574 27.816C60.8574 28.248 61.0374 28.62 61.3974 28.932C61.7574 29.244 62.1174 29.4 62.4774 29.4C62.8134 29.4 63.1014 29.28 63.3414 29.04C63.5814 28.824 63.8814 28.332 64.2414 27.564C64.5774 27.012 64.7934 26.592 64.8894 26.304C65.0094 26.04 65.1174 25.668 65.2134 25.188L65.3934 24.324C65.6574 23.532 65.8974 22.392 66.1134 20.904C66.2814 19.944 66.4254 19.176 66.5454 18.6C66.6894 18.024 66.8694 17.568 67.0854 17.232C67.2054 16.536 67.4094 15.732 67.6974 14.82C67.9854 13.908 68.2854 13.08 68.5974 12.336C68.9094 11.592 69.1014 11.184 69.1734 11.112C69.3654 10.944 69.7134 10.86 70.2174 10.86C70.8894 10.86 71.5614 11.088 72.2334 11.544C72.9294 11.976 73.2774 12.444 73.2774 12.948C73.2774 13.164 73.2174 13.344 73.0974 13.488C72.9774 13.632 72.8334 13.704 72.6654 13.704C72.5454 13.704 72.4014 13.668 72.2334 13.596C72.0894 13.5 72.0054 13.452 71.9814 13.452C71.7174 13.452 71.3934 13.956 71.0094 14.964C70.6254 15.948 70.3014 16.92 70.0374 17.88L69.7134 19.104C69.4494 19.992 69.2934 20.568 69.2454 20.832C68.9334 22.656 68.5734 24.18 68.1654 25.404L68.0934 25.584C68.0454 25.8 67.9854 26.004 67.9134 26.196C67.1694 28.476 66.2694 30.072 65.2134 30.984C64.1574 31.92 63.1614 32.388 62.2254 32.388ZM77.4854 24.324C77.1974 24.348 76.9574 24.324 76.7654 24.252C76.5974 24.204 76.3454 24.072 76.0094 23.856C75.4814 23.448 75.0374 22.944 74.6774 22.344C74.3414 21.744 74.1854 21.24 74.2094 20.832C74.2334 20.76 74.2454 20.652 74.2454 20.508C74.2454 20.364 74.2334 20.256 74.2094 20.184C74.1854 20.088 74.1734 20.028 74.1734 20.004C74.0774 19.932 74.0174 19.884 73.9934 19.86C73.9934 19.812 74.0054 19.764 74.0294 19.716C74.0774 19.668 74.1134 19.62 74.1374 19.572C74.2334 19.548 74.2814 19.5 74.2814 19.428C74.2814 19.356 74.2574 19.272 74.2094 19.176C74.1374 18.984 74.1734 18.552 74.3174 17.88C74.4854 17.184 74.7014 16.536 74.9654 15.936C75.1574 15.48 75.4574 14.892 75.8654 14.172C76.2974 13.452 76.6934 12.9 77.0534 12.516C77.6534 11.82 78.1454 11.304 78.5294 10.968C78.9374 10.632 79.3934 10.368 79.8974 10.176C80.3054 10.008 80.7254 9.924 81.1574 9.924C81.7334 9.924 82.2374 10.092 82.6694 10.428C84.0374 10.812 84.8654 11.556 85.1534 12.66C85.2974 13.164 85.3694 13.728 85.3694 14.352C85.3694 15.696 84.9494 17.172 84.1094 18.78C83.6534 19.692 83.1974 20.448 82.7414 21.048C82.3094 21.624 81.7814 22.176 81.1574 22.704C80.7254 23.064 80.1494 23.4 79.4294 23.712C78.7334 24 78.0854 24.204 77.4854 24.324ZM80.6174 18.888C80.9294 18.432 81.1814 18 81.3734 17.592C81.5654 17.184 81.7334 16.632 81.8774 15.936C81.9734 15.504 82.0214 15.072 82.0214 14.64C82.0214 13.872 81.9134 13.452 81.6974 13.38C81.5294 13.308 81.3614 13.272 81.1934 13.272C80.6894 13.272 80.1614 13.596 79.6094 14.244C79.0574 14.844 78.6494 15.432 78.3854 16.008C78.1214 16.584 77.8214 17.508 77.4854 18.78C77.3894 19.164 77.3414 19.548 77.3414 19.932C77.3414 20.316 77.4014 20.628 77.5214 20.868C77.6414 21.084 77.8214 21.192 78.0614 21.192C78.7334 21.192 79.5854 20.424 80.6174 18.888ZM88.0804 23.46C87.9124 23.46 87.6844 23.34 87.3964 23.1C87.1324 22.86 86.9764 22.644 86.9284 22.452C86.9044 22.404 86.8924 22.296 86.8924 22.128C86.8924 21.816 87.0364 21.204 87.3244 20.292L87.5764 19.14C87.8164 18.084 88.0324 17.196 88.2244 16.476C88.2964 16.332 88.4404 15.924 88.6564 15.252C88.8004 14.724 88.9924 14.208 89.2324 13.704C89.5204 12.624 89.9764 11.556 90.6004 10.5C90.6724 10.38 90.7924 10.236 90.9604 10.068C91.1284 9.9 91.2484 9.816 91.3204 9.816C91.4644 9.672 91.6684 9.6 91.9324 9.6C92.3164 9.6 92.6644 9.732 92.9764 9.996C93.2884 10.356 93.4444 10.74 93.4444 11.148C93.4444 11.604 93.2764 12.168 92.9404 12.84C92.7484 13.368 92.4364 14.04 92.0044 14.856C91.6684 15.456 91.4644 15.852 91.3924 16.044C91.6804 15.66 92.3044 14.94 93.2644 13.884C93.5524 13.572 93.8284 13.32 94.0924 13.128C94.3564 12.912 94.7524 12.636 95.2804 12.3C95.8084 11.916 96.2284 11.652 96.5404 11.508C96.8524 11.34 97.2124 11.256 97.6204 11.256C97.8124 11.256 97.9564 11.268 98.0524 11.292C98.3644 11.268 98.6884 11.472 99.0244 11.904C99.3844 12.336 99.5644 12.828 99.5644 13.38C99.5644 13.596 99.5284 13.812 99.4564 14.028C99.1684 13.98 98.9644 13.956 98.8444 13.956C98.3644 13.956 97.9324 14.052 97.5484 14.244C97.1884 14.436 96.8884 14.628 96.6484 14.82C96.4084 14.988 96.2524 15.096 96.1804 15.144C95.3404 15.696 94.3444 16.44 93.1924 17.376C92.6164 17.856 92.1844 18.276 91.8964 18.636C91.6084 18.996 91.3804 19.38 91.2124 19.788C91.1644 19.932 90.9364 20.496 90.5284 21.48C90.1204 22.44 89.8084 23.004 89.5924 23.172C89.4724 23.436 89.1604 23.568 88.6564 23.568C88.3924 23.568 88.2004 23.532 88.0804 23.46ZM111.14 23.748C110.852 23.748 110.624 23.7 110.456 23.604C110.288 23.508 110.048 23.328 109.736 23.064C109.256 22.56 108.884 22.044 108.62 21.516C108.356 20.964 108.26 20.484 108.332 20.076C108.404 19.908 108.428 19.74 108.404 19.572C108.404 19.404 108.404 19.296 108.404 19.248C108.308 19.152 108.26 19.092 108.26 19.068C108.26 19.02 108.284 18.984 108.332 18.96C108.38 18.912 108.416 18.864 108.44 18.816C108.584 18.816 108.632 18.684 108.584 18.42C108.536 18.228 108.62 17.808 108.836 17.16C109.052 16.512 109.328 15.912 109.664 15.36C109.928 14.928 110.312 14.388 110.816 13.74C111.344 13.092 111.812 12.6 112.22 12.264C113.42 11.232 114.5 10.608 115.46 10.392C115.94 10.272 116.408 10.212 116.864 10.212C117.56 10.212 118.1 10.404 118.484 10.788C119.012 11.004 119.396 11.316 119.636 11.724C119.876 12.132 120.032 12.672 120.104 13.344C120.128 13.488 120.14 13.728 120.14 14.064C120.14 15.84 119.468 17.688 118.124 19.608C117.572 20.4 117.02 21.036 116.468 21.516C115.916 21.996 115.244 22.476 114.452 22.956C114.02 23.244 113.564 23.436 113.084 23.532C112.604 23.628 111.956 23.7 111.14 23.748ZM114.812 19.356C115.268 18.948 115.592 18.54 115.784 18.132C116 17.7 116.3 16.956 116.684 15.9C116.828 15.684 116.9 15.252 116.9 14.604C116.9 14.028 116.816 13.704 116.648 13.632C116.528 13.536 116.384 13.488 116.216 13.488C116 13.488 115.652 13.656 115.172 13.992C114.332 14.712 113.624 15.468 113.048 16.26C112.496 17.028 112.112 17.916 111.896 18.924C111.872 19.02 111.86 19.164 111.86 19.356C111.86 20.172 112.148 20.58 112.724 20.58C113.276 20.58 113.972 20.172 114.812 19.356ZM120.007 32.424C119.767 32.424 119.587 32.316 119.467 32.1C119.443 32.076 119.335 31.932 119.143 31.668C118.951 31.404 118.855 31.02 118.855 30.516C118.855 30.42 118.879 30.228 118.927 29.94C119.191 28.932 119.323 28.236 119.323 27.852C119.323 27.732 119.347 27.552 119.395 27.312C119.443 27.096 119.479 26.892 119.503 26.7C119.599 26.532 119.683 26.268 119.755 25.908C119.851 25.572 119.899 25.272 119.899 25.008C119.899 24.888 119.935 24.744 120.007 24.576C120.103 24.432 120.211 24.312 120.331 24.216C120.331 24.072 120.367 23.856 120.439 23.568C120.511 23.256 120.559 23.04 120.583 22.92C120.703 22.272 121.171 20.736 121.987 18.312C122.803 15.888 123.499 13.932 124.075 12.444C124.363 11.772 124.603 11.148 124.795 10.572C124.987 9.996 125.083 9.588 125.083 9.348C125.083 9.252 125.107 9.168 125.155 9.096C125.227 9 125.335 8.88 125.479 8.736C125.671 8.544 125.923 8.448 126.235 8.448C126.643 8.448 127.039 8.58 127.423 8.844C127.591 9.108 127.711 9.336 127.783 9.528C127.855 9.72 127.891 9.936 127.891 10.176C127.891 10.248 127.867 10.476 127.819 10.86C127.819 11.364 127.675 11.82 127.387 12.228C127.099 12.636 126.967 12.828 126.991 12.804C128.167 12.084 129.259 11.724 130.267 11.724C131.347 11.724 132.211 12.108 132.859 12.876C133.507 13.62 133.831 14.508 133.831 15.54C133.831 15.948 133.639 16.56 133.255 17.376C132.871 18.168 132.559 18.672 132.319 18.888C132.175 18.888 131.983 19.14 131.743 19.644C131.455 20.028 130.903 20.436 130.087 20.868C129.295 21.276 128.755 21.432 128.467 21.336C128.443 21.336 128.407 21.372 128.359 21.444C128.311 21.492 128.287 21.564 128.287 21.66C128.287 21.756 127.927 21.924 127.207 22.164C126.487 22.404 125.863 22.524 125.335 22.524C125.047 22.524 124.831 22.512 124.687 22.488C124.543 22.44 124.399 22.356 124.255 22.236C124.087 22.404 124.003 22.56 124.003 22.704C124.003 22.944 123.883 23.328 123.643 23.856C123.403 24.36 123.211 24.612 123.067 24.612C123.043 24.636 123.007 24.684 122.959 24.756C122.935 24.828 122.971 24.912 123.067 25.008C123.067 25.08 123.055 25.248 123.031 25.512C123.007 25.776 122.947 25.98 122.851 26.124C122.851 26.34 122.815 26.628 122.743 26.988C122.671 27.372 122.587 27.66 122.491 27.852C122.491 28.14 122.443 28.416 122.347 28.68C122.275 28.968 122.191 29.112 122.095 29.112C121.951 29.16 121.879 29.508 121.879 30.156C121.855 30.732 121.663 31.248 121.303 31.704C120.967 32.16 120.643 32.388 120.331 32.388L120.007 32.424ZM124.939 19.788C125.275 19.788 125.899 19.608 126.811 19.248C127.747 18.864 128.431 18.492 128.863 18.132C129.415 17.676 129.835 17.256 130.123 16.872C130.411 16.488 130.555 16.104 130.555 15.72C130.555 15.384 130.447 15.06 130.231 14.748C130.063 14.484 129.811 14.352 129.475 14.352C128.683 14.352 127.651 14.964 126.379 16.188C125.947 16.644 125.563 17.22 125.227 17.916C124.891 18.588 124.723 19.104 124.723 19.464C124.723 19.68 124.795 19.788 124.939 19.788ZM138.508 23.712C137.788 23.712 137.32 23.676 137.104 23.604C136.888 23.508 136.624 23.316 136.312 23.028C136.24 22.86 136.084 22.632 135.844 22.344C135.628 22.056 135.448 21.84 135.304 21.696C135.232 21.432 135.196 21.12 135.196 20.76C135.196 20.136 135.28 19.404 135.448 18.564C135.64 17.724 135.868 16.956 136.132 16.26C136.228 16.068 136.3 15.888 136.348 15.72C136.42 15.552 136.468 15.444 136.492 15.396C136.492 15.228 136.792 14.712 137.392 13.848C138.016 12.96 138.508 12.348 138.868 12.012C139.036 11.82 139.288 11.616 139.624 11.4C139.984 11.184 140.296 11.028 140.56 10.932C140.632 10.908 140.92 10.8 141.424 10.608C141.952 10.416 142.432 10.32 142.864 10.32C143.248 10.32 143.62 10.404 143.98 10.572C144.364 10.716 144.676 10.956 144.916 11.292C145.54 11.916 145.852 12.732 145.852 13.74C145.852 13.932 145.828 14.148 145.78 14.388C145.66 14.868 145.408 15.264 145.024 15.576C144.664 15.864 144.28 16.008 143.872 16.008C143.464 16.008 143.116 15.852 142.828 15.54C142.732 15.3 142.684 15.144 142.684 15.072C142.684 15 142.732 14.796 142.828 14.46C142.924 14.028 142.972 13.752 142.972 13.632C142.972 13.32 142.864 13.164 142.648 13.164C142.36 13.164 142.132 13.236 141.964 13.38C141.796 13.524 141.484 13.836 141.028 14.316C140.716 14.652 140.344 15.144 139.912 15.792C139.504 16.416 139.18 17.016 138.94 17.592C138.724 18.24 138.568 18.708 138.472 18.996C138.4 19.26 138.364 19.416 138.364 19.464C138.364 19.56 138.352 19.656 138.328 19.752C138.304 19.824 138.292 19.908 138.292 20.004C138.292 20.172 138.328 20.304 138.4 20.4C138.472 20.496 138.604 20.592 138.796 20.688C138.844 20.712 138.928 20.76 139.048 20.832C139.168 20.904 139.288 20.94 139.408 20.94C139.552 20.94 139.756 20.88 140.02 20.76C140.284 20.64 140.452 20.568 140.524 20.544C140.836 20.4 141.28 20.088 141.856 19.608L142.72 18.96C142.888 18.84 143.032 18.744 143.152 18.672C143.296 18.576 143.404 18.516 143.476 18.492C143.548 18.444 143.584 18.444 143.584 18.492C143.584 18.588 143.62 18.636 143.692 18.636C143.764 18.636 143.848 18.588 143.944 18.492C144.04 18.348 144.208 18.276 144.448 18.276C144.64 18.276 144.832 18.336 145.024 18.456C145.24 18.552 145.348 18.636 145.348 18.708L145.312 18.888C145.312 19.008 145.372 19.128 145.492 19.248C145.492 19.344 145.456 19.476 145.384 19.644C145.336 19.788 145.264 19.908 145.168 20.004C144.928 20.364 144.652 20.736 144.34 21.12C144.052 21.504 143.848 21.768 143.728 21.912H143.692C143.572 21.912 143.404 22.02 143.188 22.236C142.828 22.572 142.516 22.74 142.252 22.74C142.156 22.788 142.048 22.848 141.928 22.92C141.808 22.968 141.748 23.028 141.748 23.1C141.34 23.508 140.26 23.712 138.508 23.712ZM154.181 9.024C154.109 9.096 154.037 9.132 153.965 9.132C153.869 9.132 153.713 9.06 153.497 8.916C153.257 8.892 152.933 8.688 152.525 8.304C152.141 7.92 151.949 7.668 151.949 7.548C151.925 7.26 151.949 6.852 152.021 6.324C152.093 5.772 152.225 5.28 152.417 4.848C152.633 4.416 152.909 4.188 153.245 4.164C153.413 4.188 153.641 4.248 153.929 4.344C154.217 4.416 154.541 4.524 154.901 4.668C155.357 5.58 155.585 6.36 155.585 7.008C155.585 7.968 155.117 8.64 154.181 9.024ZM150.869 23.964C150.293 23.964 149.789 23.664 149.357 23.064C148.949 22.464 148.697 21.72 148.601 20.832C148.697 19.944 148.769 19.296 148.817 18.888C149.081 17.712 149.405 16.332 149.789 14.748C150.197 13.14 150.437 12.252 150.509 12.084C150.629 11.868 150.821 11.76 151.085 11.76C151.349 11.76 151.637 11.868 151.949 12.084C152.285 12.276 152.561 12.552 152.777 12.912C152.969 13.176 153.065 13.476 153.065 13.812C153.065 14.316 152.825 15.372 152.345 16.98C152.009 18.18 151.793 19.032 151.697 19.536C151.601 20.04 151.565 20.58 151.589 21.156C151.493 22.236 151.397 22.98 151.301 23.388C151.205 23.796 151.061 23.988 150.869 23.964ZM157.683 23.748C157.395 23.748 157.167 23.7 156.999 23.604C156.831 23.508 156.591 23.328 156.279 23.064C155.799 22.56 155.427 22.044 155.163 21.516C154.899 20.964 154.803 20.484 154.875 20.076C154.947 19.908 154.971 19.74 154.947 19.572C154.947 19.404 154.947 19.296 154.947 19.248C154.851 19.152 154.803 19.092 154.803 19.068C154.803 19.02 154.827 18.984 154.875 18.96C154.923 18.912 154.959 18.864 154.983 18.816C155.127 18.816 155.175 18.684 155.127 18.42C155.079 18.228 155.163 17.808 155.379 17.16C155.595 16.512 155.871 15.912 156.207 15.36C156.471 14.928 156.855 14.388 157.359 13.74C157.887 13.092 158.355 12.6 158.763 12.264C159.963 11.232 161.043 10.608 162.003 10.392C162.483 10.272 162.951 10.212 163.407 10.212C164.103 10.212 164.643 10.404 165.027 10.788C165.555 11.004 165.939 11.316 166.179 11.724C166.419 12.132 166.575 12.672 166.647 13.344C166.671 13.488 166.683 13.728 166.683 14.064C166.683 15.84 166.011 17.688 164.667 19.608C164.115 20.4 163.563 21.036 163.011 21.516C162.459 21.996 161.787 22.476 160.995 22.956C160.563 23.244 160.107 23.436 159.627 23.532C159.147 23.628 158.499 23.7 157.683 23.748ZM161.355 19.356C161.811 18.948 162.135 18.54 162.327 18.132C162.543 17.7 162.843 16.956 163.227 15.9C163.371 15.684 163.443 15.252 163.443 14.604C163.443 14.028 163.359 13.704 163.191 13.632C163.071 13.536 162.927 13.488 162.759 13.488C162.543 13.488 162.195 13.656 161.715 13.992C160.875 14.712 160.167 15.468 159.591 16.26C159.039 17.028 158.655 17.916 158.439 18.924C158.415 19.02 158.403 19.164 158.403 19.356C158.403 20.172 158.691 20.58 159.267 20.58C159.819 20.58 160.515 20.172 161.355 19.356ZM164.667 8.52C163.947 8.52 163.587 7.944 163.587 6.792L163.623 6.432C163.671 6.216 164.187 5.58 165.171 4.524C166.155 3.468 166.815 2.88 167.151 2.76C167.343 2.64 167.523 2.568 167.691 2.544C168.003 2.544 168.303 2.712 168.591 3.048C168.903 3.384 169.059 3.828 169.059 4.38C169.059 4.596 168.915 4.848 168.627 5.136C168.363 5.424 167.919 5.82 167.295 6.324C166.431 6.996 165.891 7.5 165.675 7.836C165.363 8.292 165.027 8.52 164.667 8.52ZM180.383 23.136C178.871 23.088 178.115 22.236 178.115 20.58C178.115 20.124 178.151 19.68 178.223 19.248C178.271 18.72 178.295 18.348 178.295 18.132V17.952V17.556C178.223 17.076 178.067 16.836 177.827 16.836C177.395 16.836 176.591 17.256 175.415 18.096C174.263 18.912 173.051 19.896 171.779 21.048C171.395 21.456 171.071 21.84 170.807 22.2C170.567 22.512 170.387 22.704 170.267 22.776C170.147 22.848 169.955 22.884 169.691 22.884C169.355 22.836 168.971 22.584 168.539 22.128C168.107 21.672 167.819 21.264 167.675 20.904C167.675 20.232 167.795 19.596 168.035 18.996C168.275 18.372 168.635 17.592 169.115 16.656C169.331 15.936 169.607 15.216 169.943 14.496C170.303 13.656 170.555 13.02 170.699 12.588C170.867 12.132 170.975 11.664 171.023 11.184C171.023 11.16 171.011 11.148 170.987 11.148C170.987 11.052 171.023 10.968 171.095 10.896C171.167 10.824 171.251 10.788 171.347 10.788C171.395 10.716 171.539 10.68 171.779 10.68C172.403 10.68 172.943 10.848 173.399 11.184C173.855 11.52 174.083 12.036 174.083 12.732C174.083 13.092 174.011 13.44 173.867 13.776C173.747 14.088 173.507 14.616 173.147 15.36L172.751 16.152C172.679 16.296 172.571 16.512 172.427 16.8C172.283 17.064 172.211 17.232 172.211 17.304C172.811 16.896 173.519 16.356 174.335 15.684C175.535 14.724 176.519 13.98 177.287 13.452C178.055 12.924 178.619 12.66 178.979 12.66C179.291 12.66 179.723 12.84 180.275 13.2C180.851 13.536 181.187 13.848 181.283 14.136C181.283 14.304 181.259 14.556 181.211 14.892C181.187 15.228 181.163 15.528 181.139 15.792L181.175 16.908C181.199 17.1 181.211 17.388 181.211 17.772C181.211 18.54 181.163 19.08 181.067 19.392C181.091 19.416 181.115 19.452 181.139 19.5C181.163 19.548 181.175 19.584 181.175 19.608L181.139 19.68C181.163 19.92 181.295 20.304 181.535 20.832C181.775 21.36 181.895 21.648 181.895 21.696C181.895 21.96 181.715 22.26 181.355 22.596C181.019 22.908 180.695 23.088 180.383 23.136ZM192.701 30.696C192.293 30.696 191.909 30.48 191.549 30.048C191.213 29.616 191.045 29.124 191.045 28.572C191.045 28.356 191.081 28.14 191.153 27.924C191.177 27.828 191.237 27.6 191.333 27.24C191.453 26.904 191.525 26.616 191.549 26.376C191.597 26.112 191.741 25.632 191.981 24.936C192.221 24.24 192.413 23.772 192.557 23.532C192.677 23.316 192.773 23.064 192.845 22.776C192.917 22.464 192.953 22.2 192.953 21.984C193.121 21.456 193.277 21.096 193.421 20.904C193.589 20.376 193.769 19.968 193.961 19.68C193.985 19.608 194.009 19.44 194.033 19.176C194.081 18.888 194.165 18.72 194.285 18.672C194.357 18.336 194.417 18.108 194.465 17.988C194.633 17.244 194.945 16.308 195.401 15.18C195.761 14.148 195.941 13.452 195.941 13.092C195.941 12.708 195.809 12.468 195.545 12.372C195.281 12.276 195.149 11.94 195.149 11.364C195.149 11.052 195.197 10.764 195.293 10.5C195.389 10.236 195.521 10.068 195.689 9.996C196.049 9.852 196.517 9.78 197.093 9.78C197.477 9.78 197.669 9.816 197.669 9.888C197.669 9.96 197.681 10.02 197.705 10.068C197.729 10.092 197.777 10.104 197.849 10.104C197.921 10.008 198.101 10.26 198.389 10.86C198.677 11.436 198.821 11.82 198.821 12.012C198.773 12.084 198.749 12.132 198.749 12.156C198.773 12.18 198.821 12.192 198.893 12.192C199.061 12.12 199.373 11.964 199.829 11.724C200.309 11.46 200.609 11.256 200.729 11.112C200.777 11.088 200.861 11.052 200.981 11.004C201.101 10.932 201.197 10.86 201.269 10.788C201.533 10.692 201.833 10.644 202.169 10.644C202.553 10.644 202.925 10.704 203.285 10.824C203.645 10.944 203.945 11.112 204.185 11.328C204.545 11.784 204.845 12.312 205.085 12.912C205.325 13.512 205.445 14.1 205.445 14.676C205.445 15.156 205.349 15.648 205.157 16.152C205.109 16.296 204.953 16.584 204.689 17.016C204.449 17.424 204.281 17.7 204.185 17.844C203.225 19.332 201.905 20.556 200.225 21.516C199.913 21.732 199.457 21.936 198.857 22.128C198.281 22.296 197.861 22.38 197.597 22.38C197.453 22.38 197.297 22.26 197.129 22.02C196.985 21.756 196.853 21.456 196.733 21.12C196.421 21.864 196.241 22.368 196.193 22.632C196.193 22.704 196.169 22.824 196.121 22.992C196.097 23.136 196.037 23.244 195.941 23.316C195.941 23.34 195.917 23.4 195.869 23.496C195.845 23.592 195.773 23.724 195.653 23.892L195.041 25.656C194.753 26.352 194.573 26.904 194.501 27.312C194.429 28.152 194.237 28.92 193.925 29.616C193.613 30.336 193.205 30.696 192.701 30.696ZM198.353 18.96C198.713 18.792 199.217 18.528 199.865 18.168C200.537 17.808 200.981 17.496 201.197 17.232C201.365 17.04 201.473 16.836 201.521 16.62C201.593 16.404 201.653 16.212 201.701 16.044C201.941 15.444 202.109 15 202.205 14.712C202.277 14.568 202.313 14.4 202.313 14.208C202.313 13.944 202.241 13.74 202.097 13.596C201.809 13.572 201.341 13.716 200.693 14.028C200.069 14.316 199.481 14.82 198.929 15.54C198.137 16.572 197.741 17.448 197.741 18.168C197.741 18.408 197.789 18.6 197.885 18.744C198.005 18.888 198.161 18.96 198.353 18.96ZM207.782 23.244C207.71 23.1 207.506 22.908 207.17 22.668C206.834 22.428 206.666 22.284 206.666 22.236C206.666 22.14 206.606 22.008 206.486 21.84C206.39 21.648 206.294 21.48 206.198 21.336C206.006 21.144 206.138 20.52 206.594 19.464C207.05 18.408 207.662 17.16 208.43 15.72C208.574 15.576 208.754 15.324 208.97 14.964C209.21 14.604 209.366 14.4 209.438 14.352C209.438 14.256 209.474 14.172 209.546 14.1C209.618 14.004 209.702 13.956 209.798 13.956L210.086 13.38C210.182 13.164 210.65 12.648 211.49 11.832C212.33 11.016 212.99 10.464 213.47 10.176C213.926 9.864 214.418 9.708 214.946 9.708C215.522 9.708 216.014 9.876 216.422 10.212L217.394 11.04C218.114 11.64 218.522 11.988 218.618 12.084L219.95 13.272L219.338 15.072C219.122 15.72 219.014 16.332 219.014 16.908C219.014 17.82 219.266 18.672 219.77 19.464C219.89 19.728 220.046 19.932 220.238 20.076C220.454 20.22 220.73 20.316 221.066 20.364C221.594 20.46 221.858 20.724 221.858 21.156C221.858 21.684 221.762 22.08 221.57 22.344C221.378 22.608 221.15 22.776 220.886 22.848C220.502 22.896 220.238 22.92 220.094 22.92C219.398 22.92 218.762 22.74 218.186 22.38C217.61 22.02 217.106 21.408 216.674 20.544C216.578 20.4 216.446 20.136 216.278 19.752C216.134 19.368 216.05 19.104 216.026 18.96C215.858 19.2 215.582 19.512 215.198 19.896C212.726 22.392 210.722 23.64 209.186 23.64C208.658 23.64 208.19 23.508 207.782 23.244ZM209.762 20.256C210.146 20.304 210.89 19.872 211.994 18.96C212.114 18.864 212.246 18.756 212.39 18.636C212.534 18.492 212.69 18.348 212.858 18.204C213.53 17.652 214.046 17.196 214.406 16.836C214.79 16.452 215.174 15.996 215.558 15.468L216.35 14.172C216.11 13.644 215.894 13.296 215.702 13.128C215.51 12.936 215.318 12.84 215.126 12.84C214.646 12.84 214.046 13.272 213.326 14.136C212.606 14.976 211.742 16.26 210.734 17.988C210.47 18.42 210.254 18.876 210.086 19.356C209.918 19.812 209.81 20.112 209.762 20.256ZM224.065 23.46C223.897 23.46 223.669 23.34 223.381 23.1C223.117 22.86 222.961 22.644 222.913 22.452C222.889 22.404 222.877 22.296 222.877 22.128C222.877 21.816 223.021 21.204 223.309 20.292L223.561 19.14C223.801 18.084 224.017 17.196 224.209 16.476C224.281 16.332 224.425 15.924 224.641 15.252C224.785 14.724 224.977 14.208 225.217 13.704C225.505 12.624 225.961 11.556 226.585 10.5C226.657 10.38 226.777 10.236 226.945 10.068C227.113 9.9 227.233 9.816 227.305 9.816C227.449 9.672 227.653 9.6 227.917 9.6C228.301 9.6 228.649 9.732 228.961 9.996C229.273 10.356 229.429 10.74 229.429 11.148C229.429 11.604 229.261 12.168 228.925 12.84C228.733 13.368 228.421 14.04 227.989 14.856C227.653 15.456 227.449 15.852 227.377 16.044C227.665 15.66 228.289 14.94 229.249 13.884C229.537 13.572 229.813 13.32 230.077 13.128C230.341 12.912 230.737 12.636 231.265 12.3C231.793 11.916 232.213 11.652 232.525 11.508C232.837 11.34 233.197 11.256 233.605 11.256C233.797 11.256 233.941 11.268 234.037 11.292C234.349 11.268 234.673 11.472 235.009 11.904C235.369 12.336 235.549 12.828 235.549 13.38C235.549 13.596 235.513 13.812 235.441 14.028C235.153 13.98 234.949 13.956 234.829 13.956C234.349 13.956 233.917 14.052 233.533 14.244C233.173 14.436 232.873 14.628 232.633 14.82C232.393 14.988 232.237 15.096 232.165 15.144C231.325 15.696 230.329 16.44 229.177 17.376C228.601 17.856 228.169 18.276 227.881 18.636C227.593 18.996 227.365 19.38 227.197 19.788C227.149 19.932 226.921 20.496 226.513 21.48C226.105 22.44 225.793 23.004 225.577 23.172C225.457 23.436 225.145 23.568 224.641 23.568C224.377 23.568 224.185 23.532 224.065 23.46ZM239.161 23.496C238.921 23.544 238.705 23.568 238.513 23.568C238.201 23.568 237.913 23.544 237.649 23.496C237.385 23.424 237.253 23.34 237.253 23.244C237.253 23.172 237.241 23.124 237.217 23.1C237.193 23.076 237.145 23.064 237.073 23.064C237.001 22.992 236.833 22.872 236.569 22.704C236.329 22.512 236.125 22.38 235.957 22.308C235.669 21.9 235.525 21.456 235.525 20.976C235.525 20.52 235.669 19.788 235.957 18.78C235.981 17.844 236.317 16.8 236.965 15.648C237.637 14.472 238.441 13.392 239.377 12.408C240.313 11.4 241.153 10.68 241.897 10.248C242.257 9.888 242.761 9.708 243.409 9.708C243.913 9.708 244.357 9.816 244.741 10.032C245.053 10.224 245.437 10.632 245.893 11.256C246.373 11.88 246.733 12.444 246.973 12.948C247.021 13.116 247.081 13.344 247.153 13.632C247.249 13.92 247.297 14.268 247.297 14.676L247.225 15.684C246.937 16.668 246.793 17.556 246.793 18.348C246.745 18.684 246.769 18.96 246.865 19.176C246.961 19.368 247.093 19.464 247.261 19.464C247.381 19.464 247.513 19.428 247.657 19.356C247.801 19.284 247.969 19.248 248.161 19.248C248.473 19.248 248.737 19.344 248.953 19.536C249.169 19.728 249.277 19.968 249.277 20.256C249.277 20.496 249.217 20.724 249.097 20.94C248.881 21.42 248.473 21.852 247.873 22.236C247.297 22.62 246.757 22.812 246.253 22.812C245.845 22.812 245.449 22.596 245.065 22.164C244.705 21.732 244.417 21.168 244.201 20.472L243.985 19.644L242.689 20.832L241.861 21.66C241.477 22.044 241.261 22.272 241.213 22.344C241.093 22.536 240.877 22.716 240.565 22.884C240.277 23.052 239.809 23.256 239.161 23.496ZM240.133 20.04C240.565 19.8 240.925 19.5 241.213 19.14C241.525 18.78 241.909 18.276 242.365 17.628C242.461 17.484 242.557 17.34 242.653 17.196C242.749 17.028 242.869 16.86 243.013 16.692C243.421 16.14 243.709 15.696 243.877 15.36C244.069 15.024 244.213 14.664 244.309 14.28C244.213 13.968 244.069 13.68 243.877 13.416C243.709 13.128 243.553 12.972 243.409 12.948C242.737 12.948 241.825 13.74 240.673 15.324C240.553 15.492 240.361 15.792 240.097 16.224C239.857 16.656 239.701 16.944 239.629 17.088C239.509 17.256 239.341 17.664 239.125 18.312C238.933 18.936 238.837 19.344 238.837 19.536C238.837 20.064 238.993 20.328 239.305 20.328C239.545 20.328 239.821 20.232 240.133 20.04ZM92.9044 71.16C92.7844 71.112 92.7004 71.04 92.6524 70.944C92.6044 70.848 92.5564 70.656 92.5084 70.368C92.5084 70.128 92.4364 69.936 92.2924 69.792C92.1484 69.672 91.8724 69.564 91.4644 69.468C91.1764 69.18 90.9484 68.868 90.7804 68.532C90.6364 68.172 90.5044 67.608 90.3844 66.84C90.2884 66.072 90.2044 64.92 90.1324 63.384C90.1804 62.712 90.2044 62.268 90.2044 62.052C90.2524 61.02 90.3124 60.072 90.3844 59.208C90.4804 58.344 90.6244 57.228 90.8164 55.86C90.7684 55.5 90.7924 54.9 90.8884 54.06C90.9604 53.628 90.9964 53.244 90.9964 52.908C90.9964 52.716 90.9844 52.584 90.9604 52.512C91.0804 52.128 91.1884 51.528 91.2844 50.712C91.3564 49.992 91.4644 49.38 91.6084 48.876L91.7164 48.12C91.8124 47.448 91.8604 47.016 91.8604 46.824C91.7884 46.272 91.8484 45.744 92.0404 45.24C92.2324 44.736 92.5684 44.376 93.0484 44.16C93.1444 44.112 93.3484 44.088 93.6604 44.088C93.9484 44.088 94.1404 44.112 94.2364 44.16C94.7884 44.424 95.0284 45 94.9564 45.888C95.0044 46.272 95.0284 46.776 95.0284 47.4C95.0284 48.96 94.8964 50.388 94.6324 51.684C94.2964 53.316 94.0684 55.32 93.9484 57.696L93.7324 61.44C93.6364 63.216 93.5884 64.272 93.5884 64.608C93.5884 64.992 93.6004 65.256 93.6244 65.4C93.6244 65.928 93.7204 66.18 93.9124 66.156C93.9844 66.132 94.0564 66.06 94.1284 65.94C94.2244 65.796 94.3084 65.628 94.3804 65.436C94.4524 65.172 94.5604 64.884 94.7044 64.572C95.4964 63.036 96.0964 61.704 96.5044 60.576C96.9124 59.616 97.3684 58.716 97.8724 57.876C98.4004 56.916 98.7844 56.148 99.0244 55.572C99.3124 54.852 99.9244 53.616 100.86 51.864C100.98 51.672 101.28 51.204 101.76 50.46C102.264 49.716 102.792 48.816 103.344 47.76C104.04 46.608 104.64 45.768 105.144 45.24C105.648 44.688 106.092 44.412 106.476 44.412C106.572 44.388 106.704 44.376 106.872 44.376C107.184 44.376 107.448 44.52 107.664 44.808C107.904 45.168 108.024 45.528 108.024 45.888C108.024 46.608 107.532 47.688 106.548 49.128C105.876 50.136 105.084 51.396 104.172 52.908C103.284 54.42 102.648 55.536 102.264 56.256C102.192 56.448 102.084 56.712 101.94 57.048C101.82 57.384 101.676 57.66 101.508 57.876C101.292 58.092 100.968 58.596 100.536 59.388C100.128 60.18 99.7324 60.972 99.3484 61.764L96.7204 67.812C96.6244 68.124 96.4564 68.472 96.2164 68.856C96.0004 69.216 95.8924 69.432 95.8924 69.504C95.6284 69.912 95.1244 70.32 94.3804 70.728C93.6364 71.136 93.1444 71.28 92.9044 71.16ZM108.645 53.952C108.405 53.784 108.213 53.568 108.069 53.304C107.925 53.04 107.841 52.788 107.817 52.548C107.793 52.308 107.817 52.164 107.889 52.116C108.033 51.948 108.177 51.72 108.321 51.432C108.465 51.144 108.573 50.94 108.645 50.82C108.837 50.388 108.993 50.076 109.113 49.884C109.281 49.548 109.437 49.368 109.581 49.344C109.773 49.248 109.929 49.2 110.049 49.2C110.361 49.2 110.697 49.308 111.057 49.524C111.441 49.74 111.729 49.992 111.921 50.28C112.089 50.664 112.173 51 112.173 51.288C112.173 51.864 111.897 52.5 111.345 53.196C111.105 53.508 110.817 53.748 110.481 53.916C110.145 54.084 109.809 54.168 109.473 54.168C109.137 54.168 108.861 54.096 108.645 53.952ZM104.757 68.388C104.421 68.052 104.253 67.452 104.253 66.588C104.253 66.132 104.313 65.784 104.433 65.544C104.433 65.424 104.457 65.28 104.505 65.112C104.553 64.944 104.577 64.836 104.577 64.788C104.553 64.644 104.649 64.248 104.865 63.6C105.153 62.952 105.513 61.956 105.945 60.612C106.401 59.268 106.713 58.308 106.881 57.732C106.881 57.612 106.929 57.516 107.025 57.444C107.121 57.348 107.265 57.288 107.457 57.264C107.721 57.168 108.057 57.288 108.465 57.624C108.873 57.936 109.209 58.296 109.473 58.704C109.617 58.848 109.689 59.04 109.689 59.28C109.689 59.64 109.533 60.144 109.221 60.792C109.101 61.056 108.981 61.38 108.861 61.764C108.765 62.148 108.681 62.508 108.609 62.844C108.321 63.492 108.093 64.092 107.925 64.644C107.853 64.956 107.805 65.196 107.781 65.364C107.613 66.252 107.457 66.828 107.313 67.092C107.169 67.692 106.965 68.148 106.701 68.46C106.437 68.748 106.137 68.892 105.801 68.892C105.393 68.892 105.045 68.724 104.757 68.388ZM114.919 68.496C114.679 68.544 114.463 68.568 114.271 68.568C113.959 68.568 113.671 68.544 113.407 68.496C113.143 68.424 113.011 68.34 113.011 68.244C113.011 68.172 112.999 68.124 112.975 68.1C112.951 68.076 112.903 68.064 112.831 68.064C112.759 67.992 112.591 67.872 112.327 67.704C112.087 67.512 111.883 67.38 111.715 67.308C111.427 66.9 111.283 66.456 111.283 65.976C111.283 65.52 111.427 64.788 111.715 63.78C111.739 62.844 112.075 61.8 112.723 60.648C113.395 59.472 114.199 58.392 115.135 57.408C116.071 56.4 116.911 55.68 117.655 55.248C118.015 54.888 118.519 54.708 119.167 54.708C119.671 54.708 120.115 54.816 120.499 55.032C120.811 55.224 121.195 55.632 121.651 56.256C122.131 56.88 122.491 57.444 122.731 57.948C122.779 58.116 122.839 58.344 122.911 58.632C123.007 58.92 123.055 59.268 123.055 59.676L122.983 60.684C122.695 61.668 122.551 62.556 122.551 63.348C122.503 63.684 122.527 63.96 122.623 64.176C122.719 64.368 122.851 64.464 123.019 64.464C123.139 64.464 123.271 64.428 123.415 64.356C123.559 64.284 123.727 64.248 123.919 64.248C124.231 64.248 124.495 64.344 124.711 64.536C124.927 64.728 125.035 64.968 125.035 65.256C125.035 65.496 124.975 65.724 124.855 65.94C124.639 66.42 124.231 66.852 123.631 67.236C123.055 67.62 122.515 67.812 122.011 67.812C121.603 67.812 121.207 67.596 120.823 67.164C120.463 66.732 120.175 66.168 119.959 65.472L119.743 64.644L118.447 65.832L117.619 66.66C117.235 67.044 117.019 67.272 116.971 67.344C116.851 67.536 116.635 67.716 116.323 67.884C116.035 68.052 115.567 68.256 114.919 68.496ZM115.891 65.04C116.323 64.8 116.683 64.5 116.971 64.14C117.283 63.78 117.667 63.276 118.123 62.628C118.219 62.484 118.315 62.34 118.411 62.196C118.507 62.028 118.627 61.86 118.771 61.692C119.179 61.14 119.467 60.696 119.635 60.36C119.827 60.024 119.971 59.664 120.067 59.28C119.971 58.968 119.827 58.68 119.635 58.416C119.467 58.128 119.311 57.972 119.167 57.948C118.495 57.948 117.583 58.74 116.431 60.324C116.311 60.492 116.119 60.792 115.855 61.224C115.615 61.656 115.459 61.944 115.387 62.088C115.267 62.256 115.099 62.664 114.883 63.312C114.691 63.936 114.595 64.344 114.595 64.536C114.595 65.064 114.751 65.328 115.063 65.328C115.303 65.328 115.579 65.232 115.891 65.04ZM130.549 51.864C130.357 51.624 130.261 51.288 130.261 50.856C130.261 50.472 130.333 50.076 130.477 49.668C130.621 49.236 130.813 48.864 131.053 48.552C131.389 48.144 131.881 47.94 132.529 47.94C132.961 47.94 133.321 48.048 133.609 48.264C133.945 48.84 134.113 49.332 134.113 49.74C134.113 50.1 134.017 50.412 133.825 50.676C133.417 51.132 132.985 51.48 132.529 51.72C132.073 51.96 131.653 52.08 131.269 52.08C130.957 52.08 130.717 52.008 130.549 51.864ZM125.221 76.524C124.717 77.052 124.069 77.316 123.277 77.316C122.413 77.316 121.681 77.004 121.081 76.38C120.625 75.804 120.289 75.216 120.073 74.616C119.857 74.016 119.749 73.476 119.749 72.996C119.749 72.612 119.821 72.3 119.965 72.06C120.109 71.844 120.313 71.736 120.577 71.736C120.793 71.736 121.093 71.844 121.477 72.06C121.837 72.276 122.017 72.504 122.017 72.744C122.017 73.176 122.065 73.512 122.161 73.752C122.233 73.992 122.413 74.124 122.701 74.148C122.773 74.172 122.869 74.184 122.989 74.184C123.445 74.184 123.889 73.848 124.321 73.176C124.729 72.648 125.197 71.664 125.725 70.224C126.277 68.808 126.589 68.004 126.661 67.812C126.853 67.14 127.021 66.396 127.165 65.58C127.333 64.764 127.441 64.248 127.489 64.032L127.957 61.512C128.029 60.96 128.125 60.432 128.245 59.928C128.389 59.424 128.473 59.112 128.497 58.992C128.497 58.392 128.581 57.924 128.749 57.588C128.749 57.276 128.797 56.892 128.893 56.436C129.013 55.956 129.073 55.656 129.073 55.536C129.169 55.44 129.433 55.476 129.865 55.644C130.297 55.788 130.609 55.956 130.801 56.148C131.089 56.46 131.293 56.76 131.413 57.048C131.557 57.312 131.629 57.78 131.629 58.452C131.629 58.86 131.593 59.412 131.521 60.108C131.521 60.396 131.401 61.128 131.161 62.304C130.921 63.48 130.693 64.5 130.477 65.364C130.357 65.82 130.273 66.12 130.225 66.264C130.081 66.768 129.985 67.164 129.937 67.452C129.913 67.644 129.757 68.136 129.469 68.928C129.181 69.624 129.013 70.116 128.965 70.404C128.893 70.908 128.605 71.688 128.101 72.744C127.933 73.176 127.489 73.848 126.769 74.76C126.073 75.672 125.557 76.26 125.221 76.524ZM136.269 68.352C135.861 68.448 135.369 68.232 134.793 67.704C134.217 67.176 133.881 66.684 133.785 66.228C133.737 65.988 133.713 65.784 133.713 65.616C133.713 64.68 134.013 63.552 134.613 62.232C135.213 60.888 136.017 59.628 137.025 58.452C138.057 57.276 139.185 56.424 140.409 55.896C140.913 55.632 141.237 55.5 141.381 55.5C141.525 55.5 141.849 55.632 142.353 55.896C142.833 56.016 143.217 56.148 143.505 56.292C143.793 56.436 144.057 56.664 144.297 56.976C144.609 57.6 144.837 58.368 144.981 59.28C145.125 59.784 145.197 60.144 145.197 60.36C145.197 60.552 145.125 60.72 144.981 60.864C144.957 60.888 144.909 60.936 144.837 61.008C144.789 61.08 144.765 61.14 144.765 61.188C144.765 61.212 144.789 61.224 144.837 61.224C144.837 61.248 144.825 61.308 144.801 61.404C144.777 61.476 144.729 61.584 144.657 61.728C144.369 62.64 144.225 63.348 144.225 63.852C144.225 64.02 144.249 64.224 144.297 64.464C144.537 65.088 144.837 65.4 145.197 65.4C145.533 65.4 145.917 65.184 146.349 64.752C146.709 64.512 147.069 64.392 147.429 64.392C147.645 64.392 147.753 64.452 147.753 64.572C147.777 64.596 147.825 64.632 147.897 64.68C147.969 64.728 148.041 64.752 148.113 64.752C148.209 64.752 148.257 64.86 148.257 65.076C148.257 65.268 148.209 65.52 148.113 65.832C148.041 66.144 147.945 66.396 147.825 66.588C147.657 66.756 147.525 66.9 147.429 67.02C147.333 67.14 147.285 67.236 147.285 67.308L146.745 67.812C146.289 68.076 145.749 68.208 145.125 68.208C144.477 68.208 143.961 68.076 143.577 67.812C143.193 67.548 142.833 67.224 142.497 66.84C142.161 66.432 141.945 66.072 141.849 65.76L141.669 65.4L140.625 66.084L139.725 67.02C139.533 67.26 139.365 67.38 139.221 67.38H138.861C138.861 67.548 138.525 67.752 137.853 67.992C137.181 68.232 136.653 68.352 136.269 68.352ZM137.025 65.328C137.289 65.328 137.829 65.028 138.645 64.428C139.485 63.804 140.049 63.312 140.337 62.952C140.433 62.832 140.553 62.664 140.697 62.448C140.865 62.208 141.009 62.028 141.129 61.908C141.513 61.452 141.789 61.092 141.957 60.828C142.149 60.54 142.245 60.264 142.245 60C142.245 59.808 142.161 59.544 141.993 59.208C141.897 58.92 141.753 58.776 141.561 58.776C141.465 58.776 141.189 58.86 140.733 59.028C140.277 59.292 139.737 59.832 139.113 60.648C138.513 61.464 137.985 62.292 137.529 63.132C137.073 63.972 136.845 64.584 136.845 64.968C136.845 65.04 136.869 65.112 136.917 65.184C136.965 65.256 137.001 65.304 137.025 65.328ZM151.999 68.244C151.807 68.244 151.531 68.196 151.171 68.1C150.835 68.004 150.631 67.92 150.559 67.848C150.415 67.728 150.271 67.548 150.127 67.308C149.983 67.044 149.911 66.744 149.911 66.408C149.911 65.88 150.103 65.328 150.487 64.752C150.631 64.464 150.991 63.468 151.567 61.764L152.287 59.784C152.335 59.376 152.311 59.088 152.215 58.92C152.119 58.728 151.915 58.62 151.603 58.596C151.339 58.596 151.147 58.512 151.027 58.344C150.907 58.152 150.847 57.852 150.847 57.444C150.919 56.748 151.195 56.244 151.675 55.932C152.059 55.74 152.587 55.644 153.259 55.644C153.859 55.644 154.255 55.728 154.447 55.896C154.639 56.04 154.807 56.364 154.951 56.868C155.095 57.372 155.203 57.84 155.275 58.272C155.395 58.2 155.707 57.876 156.211 57.3L157.003 56.472C157.411 56.184 157.879 55.908 158.407 55.644C158.935 55.38 159.307 55.248 159.523 55.248C159.763 55.248 160.075 55.368 160.459 55.608C160.843 55.848 161.095 56.076 161.215 56.292C161.575 56.964 161.755 57.516 161.755 57.948C161.755 58.284 161.671 58.548 161.503 58.74C160.855 59.556 160.135 59.964 159.343 59.964C159.151 59.964 158.995 59.952 158.875 59.928C158.755 59.904 158.611 59.736 158.443 59.424C158.275 59.112 158.179 58.872 158.155 58.704C158.155 58.632 157.975 58.776 157.615 59.136C157.279 59.472 157.063 59.688 156.967 59.784L156.355 60.432C155.971 60.888 155.575 61.488 155.167 62.232C154.783 62.976 154.207 64.104 153.439 65.616L152.971 66.732C152.731 67.284 152.551 67.68 152.431 67.92C152.311 68.136 152.167 68.244 151.999 68.244Z" fill="white"/>
</svg>
