<svg width="50" height="50" viewBox="0 0 50 50" fill="none" xmlns="http://www.w3.org/2000/svg">
<path d="M24.5 4.99997C13.178 4.99997 4 14.178 4 25.5C4 36.8219 13.178 46 24.5 46C35.822 46 45 36.8219 45 25.5C45 14.178 35.822 4.99997 24.5 4.99997ZM29.3559 19.1663H26.2745C25.9094 19.1663 25.5036 19.6468 25.5036 20.2853V22.5104H29.3581L28.7751 25.6836H25.5036V35.2097H21.867V25.6836H18.5678V22.5104H21.867V20.644C21.867 17.9662 23.7248 15.7902 26.2745 15.7902H29.3559V19.1663Z" fill="#042B63"/>
</svg>
