<svg width="11" height="15" viewBox="0 0 11 15" fill="none" xmlns="http://www.w3.org/2000/svg">
<path d="M0.296188 12.296L7.47219 7.97599V7.80799L0.296188 3.51199V0.823992L10.0882 6.91999V8.88799L0.296188 14.984V12.296Z" fill="#042B63"/>
</svg>
