<svg width="27" height="27" viewBox="0 0 27 27" fill="none" xmlns="http://www.w3.org/2000/svg">
<circle cx="13.5" cy="13.5" r="13.5" fill="#C4C4C4"/>
<rect x="4" y="12" width="19" height="3" fill="black" fill-opacity="0.57"/>
</svg>
