<svg width="25" height="25" viewBox="0 0 25 25" fill="none" xmlns="http://www.w3.org/2000/svg">
<rect x="0.925781" y="1.85205" width="22.2222" height="22.2222" rx="5" fill="white"/>
<rect x="0.925781" y="1.85205" width="22.2222" height="22.2222" rx="5" fill="#FF533D"/>
<path d="M5.50122 14.5005L9.98394 18.6492L19.4505 8.13095" stroke="white" stroke-width="2"/>
</svg>
