<svg width="27" height="27" viewBox="0 0 27 27" fill="none" xmlns="http://www.w3.org/2000/svg">
<path d="M27 13.5C27 20.9558 20.9558 27 13.5 27C6.04416 27 0 20.9558 0 13.5C0 6.04416 6.04416 0 13.5 0C20.9558 0 27 6.04416 27 13.5Z" fill="#FFC107"/>
<path fill-rule="evenodd" clip-rule="evenodd" d="M14.2071 5.47844C13.8166 5.08792 13.1834 5.08792 12.7929 5.47844C12.4024 5.86896 12.4024 6.50213 12.7929 6.89265L13.684 7.78371C13.624 7.78337 13.5627 7.7832 13.5 7.7832C12.2206 7.7832 10.9699 8.16259 9.90616 8.87338C8.84238 9.58418 8.01326 10.5945 7.52366 11.7765C7.03405 12.9585 6.90595 14.2591 7.15555 15.5139C7.40515 16.7688 8.02123 17.9214 8.9259 18.826C9.83057 19.7307 10.9832 20.3468 12.238 20.5964C13.4928 20.846 14.7935 20.7179 15.9755 20.2283C17.1575 19.7387 18.1678 18.9096 18.8786 17.8458C19.5894 16.782 19.9687 15.5313 19.9687 14.2519C19.9687 13.6997 19.521 13.2519 18.9687 13.2519C18.4165 13.2519 17.9687 13.6997 17.9687 14.2519C17.9687 15.1358 17.7067 15.9998 17.2156 16.7346C16.7246 17.4695 16.0267 18.0423 15.2101 18.3805C14.3936 18.7188 13.495 18.8073 12.6282 18.6348C11.7613 18.4624 10.9651 18.0368 10.3401 17.4118C9.71515 16.7869 9.28955 15.9906 9.11712 15.1238C8.94469 14.2569 9.03319 13.3584 9.37142 12.5418C9.70964 11.7253 10.2824 11.0274 11.0173 10.5363C11.7522 10.0453 12.6162 9.7832 13.5 9.7832C13.6638 9.7832 13.8146 9.78445 13.9533 9.78675L12.7929 10.9472C12.4024 11.3377 12.4024 11.9709 12.7929 12.3614C13.1834 12.7519 13.8166 12.7519 14.2071 12.3614L16.9415 9.62703C17.332 9.2365 17.332 8.60334 16.9415 8.21282L14.2071 5.47844Z" fill="black" fill-opacity="0.57"/>
</svg>
