<svg width="20" height="20" viewBox="0 0 20 20" fill="none" xmlns="http://www.w3.org/2000/svg">
<path d="M20 10C20 15.5228 15.5228 20 10 20C4.47715 20 0 15.5228 0 10C0 4.47715 4.47715 0 10 0C15.5228 0 20 4.47715 20 10Z" fill="#57C22D"/>
<path d="M15.8793 15.4002H15.5643C15.5364 15.4002 15.5097 15.3883 15.49 15.3672C15.4703 15.3461 15.4593 15.3175 15.4593 15.2877V10.4927C15.4595 10.4748 15.4557 10.4571 15.4483 10.441C15.4409 10.425 15.43 10.4111 15.4165 10.4005C15.4031 10.3899 15.3875 10.3828 15.371 10.38C15.3545 10.3771 15.3376 10.3786 15.3217 10.3841C15.0808 10.4652 14.8307 10.5104 14.5783 10.5185C14.5473 10.5185 14.5179 10.5199 14.489 10.5199C14.0036 10.5212 13.526 10.3891 13.1017 10.1363C13.0696 10.1172 13.0335 10.1071 12.9967 10.1071C12.96 10.1071 12.9238 10.1172 12.8917 10.1363C12.4676 10.3891 11.99 10.5212 11.5046 10.5199C11.022 10.5207 10.5475 10.387 10.1276 10.1321C10.0952 10.1125 10.0586 10.1021 10.0214 10.1021C9.98416 10.1021 9.94758 10.1125 9.91519 10.1321C9.48896 10.388 9.00831 10.5217 8.51973 10.5202C8.03385 10.5206 7.55632 10.3848 7.1345 10.1265C7.10186 10.1066 7.06495 10.0961 7.0274 10.0961C6.98984 10.0961 6.95293 10.1066 6.92029 10.1265C6.49847 10.3848 6.02095 10.5206 5.53507 10.5202C5.50645 10.5202 5.47758 10.5202 5.4466 10.5188H5.44503C5.18378 10.5104 4.92498 10.4622 4.67642 10.3757C4.66068 10.3702 4.64396 10.3688 4.62762 10.3716C4.61128 10.3744 4.59579 10.3813 4.58241 10.3917C4.56903 10.4021 4.55813 10.4158 4.55061 10.4316C4.54309 10.4473 4.53915 10.4648 4.53913 10.4825V15.2877C4.53913 15.3175 4.52807 15.3461 4.50837 15.3672C4.48868 15.3883 4.46198 15.4002 4.43413 15.4002H4.13225C3.90545 15.4002 3.70962 15.5869 3.69964 15.8299C3.69709 15.8907 3.70605 15.9513 3.72598 16.0082C3.7459 16.0652 3.77639 16.1172 3.81559 16.1611C3.85479 16.2051 3.9019 16.24 3.95407 16.2639C4.00624 16.2879 4.06239 16.3002 4.11912 16.3002H15.8661C16.0929 16.3002 16.2888 16.1134 16.2987 15.8704C16.3013 15.8097 16.2923 15.7491 16.2724 15.6921C16.2525 15.6352 16.222 15.5832 16.1828 15.5393C16.1436 15.4953 16.0965 15.4604 16.0443 15.4364C15.9921 15.4125 15.936 15.4002 15.8793 15.4002ZM9.15918 13.4877C9.15918 13.5175 9.14812 13.5461 9.12843 13.5672C9.10874 13.5883 9.08203 13.6002 9.05418 13.6002H6.74415C6.71631 13.6002 6.6896 13.5883 6.66991 13.5672C6.65022 13.5461 6.63915 13.5175 6.63915 13.4877V11.6877C6.63915 11.5982 6.67234 11.5123 6.73142 11.449C6.79049 11.3858 6.87061 11.3502 6.95416 11.3502H8.84418C8.92772 11.3502 9.00785 11.3858 9.06692 11.449C9.126 11.5123 9.15918 11.5982 9.15918 11.6877V13.4877ZM13.2542 15.4002H11.3642C11.3364 15.4002 11.3097 15.3883 11.29 15.3672C11.2703 15.3461 11.2592 15.3175 11.2592 15.2877V11.6877C11.2592 11.5982 11.2924 11.5123 11.3515 11.449C11.4105 11.3858 11.4907 11.3502 11.5742 11.3502H13.0442C13.1278 11.3502 13.2079 11.3858 13.267 11.449C13.326 11.5123 13.3592 11.5982 13.3592 11.6877V15.2877C13.3592 15.3175 13.3482 15.3461 13.3285 15.3672C13.3088 15.3883 13.2821 15.4002 13.2542 15.4002ZM16.2092 7.58932L15.0826 4.81929C14.7875 4.13951 14.1137 3.7002 13.3658 3.7002H6.63128C5.88341 3.7002 5.20956 4.13951 4.91451 4.81929L3.78785 7.58932C3.55159 8.13523 3.86371 8.69576 3.86397 8.69604L3.87132 8.7087C3.88418 8.73063 3.90702 8.76495 3.92093 8.78688C3.92225 8.78857 3.9233 8.79054 3.92461 8.79251L4.05586 8.96266C4.06077 8.96909 4.06603 8.97519 4.07161 8.98095L4.20286 9.11679L4.21389 9.12691C4.29097 9.1977 4.37342 9.26148 4.46038 9.3176V9.31901C4.74606 9.50442 5.07154 9.60778 5.40539 9.6191H5.47023C5.97536 9.62011 6.46208 9.416 6.83236 9.04788L6.84102 9.03916C6.87969 9.00012 6.93082 8.97838 6.98395 8.97838C7.03709 8.97838 7.08821 9.00012 7.12688 9.03916L7.13555 9.04788C7.50977 9.41538 7.99897 9.61924 8.5066 9.61924C9.01423 9.61924 9.50343 9.41538 9.87765 9.04788C9.91647 9.00938 9.96742 8.98799 10.0203 8.98799C10.0732 8.98799 10.1242 9.00938 10.163 9.04788C10.5361 9.41421 11.0235 9.61796 11.5296 9.61916C12.0357 9.62035 12.5239 9.41891 12.8985 9.05435C12.9368 9.0164 12.987 8.99531 13.0391 8.99531C13.0912 8.99531 13.1414 9.0164 13.1797 9.05435C13.5547 9.42114 14.0451 9.62282 14.5528 9.6191H14.6182C14.9437 9.60608 15.2603 9.50236 15.537 9.31816C15.5619 9.30213 15.5858 9.28526 15.6099 9.26838C15.7965 9.13363 15.9589 8.96395 16.0893 8.76748L16.1349 8.69351C16.1395 8.68601 16.1437 8.67813 16.1475 8.66988C16.1911 8.57482 16.4247 8.08601 16.2092 7.58932Z" fill="white"/>
</svg>
