<svg width="58" height="10" viewBox="0 0 58 10" fill="none" xmlns="http://www.w3.org/2000/svg">
<path d="M25.1997 6.68131V4.59855C25.1997 3.81266 24.6898 3.28364 23.8692 3.27669C23.6355 3.26184 23.4021 3.30888 23.1932 3.41292C22.9842 3.51695 22.8075 3.67418 22.6815 3.8682C22.5666 3.67993 22.4022 3.52562 22.2056 3.42152C22.0089 3.31742 21.7874 3.26739 21.5643 3.27669C21.37 3.26747 21.1767 3.30821 21.0033 3.39489C20.8299 3.48158 20.6825 3.61121 20.5757 3.771V3.35445H19.8398V6.68131H20.5827V4.83876C20.5827 4.26114 20.9076 3.95567 21.4104 3.95567C21.9132 3.95567 22.1462 4.26809 22.1462 4.83182V6.68131H22.8848V4.83876C22.8848 4.26114 23.2238 3.95567 23.7125 3.95567C24.2011 3.95567 24.4554 4.26809 24.4554 4.83182V6.68131H25.1997ZM36.1919 3.35723H34.99V2.34917H34.2471V3.35723H33.5607V4.01815H34.2471V5.53301C34.2471 6.30502 34.5507 6.76462 35.4207 6.76462C35.7457 6.76565 36.0643 6.67662 36.3401 6.50774L36.1283 5.88847C35.9309 6.00408 35.7069 6.06857 35.4772 6.07592C35.11 6.07592 34.9885 5.85376 34.9885 5.52052V4.01815H36.1904L36.1919 3.35723ZM42.4669 3.27392C42.2874 3.26877 42.1099 3.31134 41.9531 3.39712C41.7962 3.4829 41.6658 3.60871 41.5757 3.76128V3.35723H40.8469V6.68131H41.5827V4.81793C41.5827 4.26253 41.8228 3.96261 42.3044 3.96261C42.462 3.96037 42.6184 3.98868 42.7649 4.04592L42.9908 3.36417C42.8227 3.30504 42.6455 3.27452 42.4669 3.27392ZM32.9802 3.62104C32.5636 3.37771 32.0846 3.25722 31.6004 3.27392C30.7445 3.27392 30.188 3.67797 30.188 4.33751C30.188 4.88042 30.5976 5.21366 31.3546 5.31779L31.7006 5.36639C32.1031 5.42193 32.2952 5.52607 32.2952 5.71352C32.2952 5.97039 32.0269 6.11757 31.5241 6.11757C31.1185 6.13024 30.7203 6.00793 30.3942 5.77045L30.0595 6.33279C30.488 6.62734 31.0014 6.77872 31.5241 6.76462C32.5 6.76462 33.0664 6.31196 33.0664 5.68019C33.0664 5.09563 32.6201 4.79016 31.8856 4.68602L31.5396 4.63743C31.2218 4.59577 30.9662 4.53329 30.9662 4.31113C30.9662 4.06814 31.2063 3.92235 31.6102 3.92235C31.9803 3.92772 32.3429 4.02568 32.6638 4.20699L32.9802 3.62104ZM52.6851 3.27392C52.5057 3.26877 52.3282 3.31134 52.1713 3.39712C52.0145 3.4829 51.8841 3.60871 51.7939 3.76128V3.35723H51.0651V6.68131H51.801V4.81793C51.801 4.26253 52.0411 3.96261 52.5227 3.96261C52.6802 3.96037 52.8367 3.98868 52.9831 4.04592L53.2091 3.36417C53.0409 3.30504 52.8637 3.27452 52.6851 3.27392ZM43.2097 5.01927C43.2097 6.02732 43.9244 6.76462 45.0133 6.76462C45.4548 6.78609 45.8886 6.64444 46.2293 6.3675L45.8762 5.78294C45.6219 5.97338 45.3118 6.07808 44.9921 6.08147C44.4046 6.08147 43.9738 5.65659 43.9738 5.01788C43.9738 4.37917 44.406 3.96123 44.9921 3.95428C45.3118 3.95768 45.6219 4.06237 45.8762 4.25281L46.2293 3.66825C45.8886 3.39131 45.4548 3.24966 45.0133 3.27114C43.9244 3.27114 43.2097 4.00843 43.2097 5.01649V5.01927ZM50.0991 5.01927V3.35306H49.3633V3.75712C49.2378 3.59796 49.0754 3.47066 48.8897 3.38587C48.7039 3.30108 48.5002 3.26126 48.2956 3.26975C47.3479 3.26975 46.6008 4.0001 46.6008 5.0151C46.6008 6.0301 47.3436 6.76045 48.2956 6.76045C48.5002 6.76894 48.7039 6.72912 48.8897 6.64433C49.0754 6.55954 49.2378 6.43224 49.3633 6.27309V6.67575H50.0991V5.01927ZM47.362 5.01927C47.362 4.43471 47.7504 3.95567 48.3874 3.95567C48.9961 3.95567 49.4057 4.41527 49.4057 5.01927C49.4057 5.62327 48.9961 6.08286 48.3874 6.08286C47.7504 6.08286 47.362 5.60244 47.362 5.01927ZM38.4841 3.27392C37.4954 3.27392 36.8006 3.98344 36.8006 5.01927C36.8006 6.07592 37.5223 6.76462 38.5335 6.76462C39.0384 6.78201 39.5322 6.61592 39.9204 6.29808L39.5603 5.76212C39.2794 5.98307 38.9314 6.10526 38.5716 6.10924C38.0971 6.10924 37.6663 5.89402 37.5604 5.29558H40.0715C40.0786 5.20533 40.0857 5.11507 40.0857 5.01788C40.0857 3.98205 39.4275 3.27253 38.4798 3.27253L38.4841 3.27392ZM38.4699 3.92096C38.9445 3.92096 39.2481 4.21254 39.3258 4.72768H37.5731C37.6508 4.24726 37.9474 3.92096 38.4714 3.92096H38.4699ZM56.9221 5.01927V2.02148H56.1863V3.75989C56.0608 3.60074 55.8984 3.47344 55.7127 3.38865C55.5269 3.30385 55.3232 3.26404 55.1185 3.27253C54.1709 3.27253 53.4237 4.00288 53.4237 5.01788C53.4237 6.03287 54.1666 6.76323 55.1185 6.76323C55.3232 6.77172 55.5269 6.7319 55.7127 6.64711C55.8984 6.56232 56.0608 6.43502 56.1863 6.27586V6.67853H56.9221V5.01927ZM57.7822 6.37445C57.8113 6.37433 57.8401 6.38 57.8669 6.39111C57.8928 6.40194 57.9162 6.41749 57.9362 6.43693C57.9559 6.45601 57.9717 6.47863 57.9828 6.50358C57.9941 6.52945 58 6.55732 58 6.5855C58 6.61367 57.9941 6.64155 57.9828 6.66742C57.9717 6.69235 57.9559 6.71497 57.9362 6.73407C57.9162 6.75343 57.8927 6.76897 57.8669 6.77989C57.8402 6.79111 57.8113 6.79678 57.7822 6.79655C57.7391 6.79708 57.6969 6.78511 57.6607 6.76214C57.6245 6.73917 57.5961 6.70622 57.5788 6.66742C57.5676 6.64153 57.5618 6.61366 57.5618 6.5855C57.5618 6.55734 57.5676 6.52947 57.5788 6.50358C57.6009 6.45259 57.6425 6.4122 57.6946 6.39111C57.7233 6.3794 57.754 6.37373 57.785 6.37445H57.7822ZM57.7822 6.74934C57.8045 6.74969 57.8266 6.74543 57.8472 6.73685C57.8666 6.72856 57.8844 6.71679 57.8994 6.70213C57.9308 6.67116 57.9485 6.62922 57.9485 6.5855C57.9485 6.54178 57.9308 6.49984 57.8994 6.46886C57.8844 6.45413 57.8667 6.44235 57.8472 6.43415C57.8266 6.42565 57.8045 6.42139 57.7822 6.42166C57.7594 6.42136 57.7369 6.42561 57.7158 6.43415C57.6906 6.44472 57.6685 6.46119 57.6512 6.48211C57.634 6.50303 57.6222 6.52778 57.6169 6.55419C57.6116 6.58061 57.613 6.6079 57.6209 6.63368C57.6288 6.65946 57.6429 6.68296 57.6622 6.70213C57.6776 6.71699 57.6958 6.72878 57.7158 6.73685C57.7377 6.74581 57.7613 6.75007 57.785 6.74934H57.7822ZM57.7949 6.48553C57.8161 6.48407 57.8371 6.48997 57.8542 6.50219C57.8612 6.50765 57.8667 6.51464 57.8704 6.5226C57.8741 6.53057 57.8758 6.53927 57.8754 6.54801C57.8757 6.55552 57.8743 6.563 57.8714 6.56994C57.8685 6.57689 57.8641 6.58314 57.8585 6.58828C57.8455 6.5996 57.8291 6.60643 57.8119 6.60772L57.8768 6.68131H57.826L57.7653 6.60772H57.7455V6.68131H57.7031V6.48691L57.7949 6.48553ZM57.7455 6.52163V6.57439H57.7949C57.8037 6.5769 57.813 6.5769 57.8218 6.57439C57.825 6.57225 57.8275 6.56934 57.8293 6.56594C57.831 6.56254 57.8318 6.55875 57.8316 6.55495C57.8318 6.55115 57.831 6.54737 57.8293 6.54396C57.8275 6.54056 57.825 6.53765 57.8218 6.53551C57.813 6.53301 57.8037 6.53301 57.7949 6.53551L57.7455 6.52163ZM54.1878 5.01927C54.1878 4.43471 54.5762 3.95567 55.2132 3.95567C55.8219 3.95567 56.2315 4.41527 56.2315 5.01927C56.2315 5.62327 55.8219 6.08286 55.2132 6.08286C54.5762 6.08286 54.1878 5.60244 54.1878 5.01927ZM29.3449 5.01927V3.35306H28.609V3.75712C28.4836 3.59931 28.3216 3.47317 28.1367 3.38914C27.9517 3.30511 27.7491 3.26561 27.5455 3.27392C26.5979 3.27392 25.8507 4.00427 25.8507 5.01927C25.8507 6.03426 26.5936 6.76462 27.5455 6.76462C27.7502 6.77311 27.9539 6.73329 28.1396 6.6485C28.3254 6.56371 28.4878 6.43641 28.6133 6.27725V6.67992H29.3491L29.3449 5.01927ZM26.6077 5.01927C26.6077 4.43471 26.9961 3.95567 27.6331 3.95567C28.2418 3.95567 28.6514 4.41527 28.6514 5.01927C28.6514 5.62327 28.2418 6.08286 27.6331 6.08286C26.9961 6.08286 26.6077 5.60383 26.6077 5.01927Z" fill="#BCCCDB"/>
<path d="M10.4508 1.06763H6.00195V8.92795H10.4508V1.06763Z" fill="#BCCCDB"/>
<path d="M6.28414 5.00086C6.28353 4.24398 6.45806 3.49688 6.7945 2.8161C7.13094 2.13532 7.62049 1.5387 8.2261 1.07139C7.47603 0.491855 6.57524 0.131479 5.62669 0.0314454C4.67815 -0.0685879 3.72011 0.0957578 2.86207 0.505699C2.00404 0.91564 1.28062 1.55464 0.774509 2.34966C0.268394 3.14468 0 4.06366 0 5.00155C0 5.93944 0.268394 6.85841 0.774509 7.65344C1.28062 8.44846 2.00404 9.08746 2.86207 9.4974C3.72011 9.90734 4.67815 10.0717 5.62669 9.97165C6.57524 9.87162 7.47603 9.51124 8.2261 8.93171C7.6203 8.46426 7.13064 7.86741 6.79419 7.18638C6.45774 6.50534 6.28332 5.75797 6.28414 5.00086Z" fill="#BCCCDB"/>
<path d="M16.4529 4.99989C16.4529 5.93785 16.1844 6.85688 15.6782 7.65193C15.172 8.44698 14.4485 9.08597 13.5904 9.49585C12.7322 9.90574 11.7741 10.07 10.8255 9.9698C9.87689 9.86962 8.97609 9.50907 8.22607 8.92936C8.83144 8.46163 9.32085 7.86485 9.65739 7.18403C9.99392 6.50321 10.1688 5.75615 10.1688 4.9992C10.1688 4.24225 9.99392 3.49518 9.65739 2.81436C9.32085 2.13355 8.83144 1.53676 8.22607 1.06903C8.97619 0.489249 9.87711 0.128681 10.8258 0.0285567C11.7746 -0.0715681 12.7328 0.0927912 13.591 0.502843C14.4492 0.912894 15.1727 1.55209 15.6788 2.34734C16.1849 3.1426 16.4532 4.06181 16.4529 4.99989Z" fill="#BCCCDB"/>
<path d="M15.9646 8.09503V7.93396H16.031V7.90202H15.8657V7.93535H15.9321V8.09641L15.9646 8.09503ZM16.2908 8.09503V7.90063H16.2471L16.1877 8.03949L16.1284 7.90063H16.0762V8.09503H16.1058V7.94923L16.1609 8.07559H16.199L16.2541 7.94923V8.09641L16.2908 8.09503Z" fill="#BCCCDB"/>
</svg>
