<svg width="22" height="17" viewBox="0 0 22 17" fill="none" xmlns="http://www.w3.org/2000/svg">
<path d="M21.3489 10.0265C21.3489 9.35277 21.1156 8.74896 20.6986 8.3198C20.2816 7.89563 19.7355 7.69602 19.1497 7.76089C18.9661 7.78085 18.7824 7.84074 18.5888 7.90561C18.4945 7.93555 18.4001 7.96549 18.3009 7.99543L18.2214 8.01539V6.688C18.2214 5.62009 18.2214 4.55218 18.2214 3.48427C18.2214 3.3695 18.2165 3.23476 18.1966 3.11001C17.9434 1.54308 16.9953 0.63985 15.5953 0.63985C14.5677 0.63985 13.5252 0.63985 12.5125 0.64484C10.5069 0.64983 8.43188 0.65482 6.39157 0.629869C5.66679 0.619889 5.00157 0.934273 4.50515 1.50316C4.01865 2.06705 3.75554 2.83056 3.7754 3.59905C3.80518 4.52723 3.79526 5.47038 3.79029 6.3786C3.78533 6.75287 3.78533 7.12714 3.78533 7.50639C3.78533 7.60121 3.7754 7.68604 3.76547 7.79083C3.76051 7.84074 3.75554 7.89064 3.75058 7.95052L3.74561 8.04534L3.52719 7.95551C3.44279 7.92058 3.37329 7.89064 3.30379 7.86569C2.69319 7.61618 2.03294 7.72097 1.4968 8.14015C0.970586 8.55933 0.662801 9.21305 0.657837 9.93663C0.642944 11.6583 0.647908 13.34 0.657837 14.7622C0.662801 15.7951 1.2188 16.6235 2.11237 16.9179C2.28115 16.9728 2.66837 16.9928 2.66837 16.9978H4.16261C6.43128 16.9978 8.69996 16.9978 10.9686 16.9978C12.7955 16.9978 14.6174 16.9978 16.4442 16.9978H17.8094C17.8292 16.9978 17.8541 16.9978 17.8739 16.9978C17.9136 16.9978 17.9534 17.0028 17.9881 16.9978C18.1072 16.9828 18.4399 16.9828 18.7973 16.9878C19.1398 16.9878 19.4923 16.9928 19.6015 16.9778C20.6291 16.8331 21.344 15.8999 21.3489 14.7173V14.6624C21.3539 13.1354 21.3539 11.5684 21.3489 10.0265Z" fill="#1763D1"/>
<path d="M2.82175 7.51147C2.17288 7.25228 1.47126 7.36114 0.901523 7.79657C0.342336 8.23201 0.0152637 8.91107 0.0099883 9.66272C-0.00583775 11.4511 -0.0005624 13.198 0.0099883 14.6754C0.0152637 15.7484 0.606103 16.6089 1.55567 16.9148C1.73503 16.9718 2.14651 16.9925 2.14651 16.9977H3.73439C6.14522 16.9977 8.55606 16.9977 10.9669 16.9977C12.9082 16.9977 14.8443 16.9977 16.7856 16.9977H18.2363C18.2574 16.9977 18.2838 16.9977 18.3049 16.9977C18.3471 16.9977 18.3893 17.0029 18.4262 16.9977C18.5528 16.9821 18.9063 16.9821 19.2861 16.9873C19.6501 16.9873 20.0247 16.9925 20.1407 16.977C21.2327 16.8266 21.9924 15.8573 21.9977 14.6287V14.5717C21.9977 12.9959 22.0029 11.3682 21.9977 9.76639C21.9977 9.06659 21.7497 8.43935 21.3066 7.99355C20.8635 7.55294 20.2832 7.34559 19.6607 7.41298C19.4655 7.43371 19.2703 7.49592 19.0646 7.5633C18.9643 7.59441 18.8641 7.62551 18.7586 7.65661L18.6742 7.67735V6.29847C18.6742 5.18916 18.6742 4.07984 18.6742 2.97052C18.6742 2.85129 18.6689 2.71133 18.6478 2.58174C18.3735 0.948862 17.3659 0.010607 15.8782 0.010607C14.7862 0.010607 13.6784 0.010607 12.6023 0.0157907C10.471 0.0209744 8.26591 0.0261582 6.09774 0.000239514C5.32754 -0.0101279 4.62065 0.316447 4.09311 0.907393C3.57613 1.49315 3.29653 2.28627 3.31763 3.08456C3.34929 4.04873 3.33874 5.02846 3.33346 5.9719C3.32818 6.36068 3.32818 6.74946 3.32818 7.14342C3.32818 7.24191 3.31763 7.33004 3.30708 7.43889C3.30181 7.49073 3.29653 7.54257 3.29126 7.60477L3.28598 7.70326L3.05387 7.60996C2.96946 7.57367 2.89561 7.54257 2.82175 7.51147ZM4.2461 6.26737C4.2461 5.20989 4.2461 4.15241 4.2461 3.08974C4.2461 1.8612 4.9952 1.0318 6.1083 1.0318C9.2313 1.02662 12.5231 1.02662 15.8835 1.0318C16.9228 1.0318 17.6138 1.72124 17.7246 2.87203C17.7352 3.0068 17.7457 3.14676 17.7457 3.32301C17.7457 6.11186 17.7457 8.90071 17.7457 11.6947C17.7457 12.2598 17.7141 12.2909 17.2076 12.2909C15.6883 12.2909 14.169 12.2909 12.6497 12.2909H10.9933C10.4868 12.2909 9.9804 12.2909 9.47397 12.2909C7.91247 12.2909 6.29821 12.2909 4.71033 12.2961C4.70505 12.2961 4.70505 12.2961 4.69978 12.2961C4.56789 12.2961 4.43073 12.2805 4.34105 12.1872C4.27247 12.1094 4.24082 11.9902 4.24082 11.7984C4.2461 9.953 4.2461 8.07649 4.2461 6.26737ZM3.31763 9.86488C3.34401 10.518 3.33874 11.1764 3.33346 11.8191C3.33346 12.1043 3.32818 12.3842 3.32818 12.6693C3.32818 13.1565 3.46534 13.3121 3.89265 13.3121C8.60354 13.3121 13.3144 13.3121 18.0253 13.3121C18.537 13.3121 18.6584 13.1721 18.6584 12.5863C18.6584 12.2546 18.6584 11.9228 18.6584 11.5962C18.6584 11.026 18.6584 10.4403 18.6584 9.8597C18.6636 9.01993 19.1437 8.4238 19.8295 8.41344C20.1566 8.40825 20.4625 8.53785 20.6788 8.77111C20.9162 9.02512 21.0481 9.39316 21.0481 9.80786C21.0692 11.5548 21.0639 13.1099 21.0428 14.5665C21.027 15.4737 20.5522 15.9713 19.7029 15.9713C18.4104 15.9713 17.1127 15.9713 15.8202 15.9713C15.0131 15.9713 14.2007 15.9713 13.3936 15.9713H7.76476C5.92366 15.9713 4.08256 15.9713 2.24146 15.9713C1.39213 15.9713 0.901523 15.427 0.901523 14.4784L0.901523 13.4209C0.901523 12.2338 0.901523 11.0053 0.901523 9.79231C0.901523 9.16508 1.20222 8.68817 1.72448 8.48082C2.19926 8.28903 2.73735 8.45491 2.99584 8.87479C3.19103 9.15989 3.30708 9.52794 3.31763 9.86488Z" fill="white"/>
</svg>
