<svg width="48" height="38" viewBox="0 0 48 38" fill="none" xmlns="http://www.w3.org/2000/svg">
<path d="M6.15655 16.7903C4.74083 16.211 3.21002 16.4543 1.96696 17.4276C0.746914 18.401 0.0333025 19.9189 0.0217927 21.599C-0.0127369 25.5966 -0.00122705 29.5015 0.0217927 32.8038C0.0333025 35.2023 1.32241 37.1258 3.39418 37.8095C3.78552 37.9369 4.68329 37.9833 4.68329 37.9949H8.14775C13.4078 37.9949 18.6678 37.9949 23.9278 37.9949C28.1634 37.9949 32.3875 37.9949 36.6231 37.9949H39.7884C39.8344 37.9949 39.8919 37.9949 39.938 37.9949C40.0301 37.9949 40.1221 38.0064 40.2027 37.9949C40.4789 37.9601 41.2501 37.9601 42.0788 37.9717C42.873 37.9717 43.6902 37.9833 43.9434 37.9485C46.326 37.6125 47.9834 35.4457 47.9949 32.6995V32.5721C47.9949 29.0496 48.0064 25.4112 47.9949 21.8308C47.9949 20.2665 47.4539 18.8644 46.4871 17.8679C45.5203 16.883 44.2542 16.4195 42.896 16.5702C42.4702 16.6165 42.0443 16.7556 41.5954 16.9062C41.3767 16.9757 41.158 17.0453 40.9278 17.1148L40.7437 17.1611V14.0789C40.7437 11.5993 40.7437 9.11963 40.7437 6.63998C40.7437 6.37348 40.7322 6.06062 40.6861 5.77094C40.0876 2.12099 37.8892 0.0237097 34.6434 0.0237097C32.2609 0.0237097 29.8438 0.0237097 27.4958 0.0352969C22.8458 0.046884 18.0347 0.0584712 13.3042 0.000535384C11.6237 -0.0226389 10.0814 0.707352 8.93042 2.02829C7.80246 3.33764 7.19243 5.11048 7.23847 6.8949C7.30753 9.05011 7.28451 11.2401 7.273 13.3489C7.26149 14.218 7.26149 15.087 7.26149 15.9676C7.26149 16.1878 7.23847 16.3848 7.21545 16.6281C7.20394 16.744 7.19243 16.8599 7.18092 16.9989L7.16941 17.2191L6.66298 17.0105C6.47882 16.9294 6.31769 16.8599 6.15655 16.7903ZM9.26421 14.0094C9.26421 11.6456 9.26421 9.28185 9.26421 6.90649C9.26421 4.16033 10.8986 2.30638 13.3272 2.30638C20.141 2.29479 27.3232 2.29479 34.655 2.30638C36.9224 2.30638 38.4302 3.84747 38.6719 6.41983C38.6949 6.72109 38.7179 7.03395 38.7179 7.42791C38.7179 13.6618 38.7179 19.8957 38.7179 26.1412C38.7179 27.4042 38.6489 27.4737 37.5439 27.4737C34.2291 27.4737 30.9143 27.4737 27.5994 27.4737H23.9853C22.8804 27.4737 21.7754 27.4737 20.6705 27.4737C17.2636 27.4737 13.7415 27.4737 10.2771 27.4853C10.2656 27.4853 10.2656 27.4853 10.2541 27.4853C9.96631 27.4853 9.66706 27.4505 9.47139 27.242C9.32176 27.0682 9.2527 26.8016 9.2527 26.3729C9.26421 22.2479 9.26421 18.0533 9.26421 14.0094ZM7.23847 22.0509C7.29602 23.5109 7.28451 24.9825 7.273 26.4193C7.273 27.0566 7.26149 27.6823 7.26149 28.3196C7.26149 29.4088 7.56075 29.7564 8.49305 29.7564C18.7714 29.7564 29.0497 29.7564 39.328 29.7564C40.4444 29.7564 40.7091 29.4435 40.7091 28.1342C40.7091 27.3926 40.7091 26.651 40.7091 25.921C40.7091 24.6464 40.7091 23.3371 40.7091 22.0393C40.7207 20.1622 41.7681 18.8297 43.2643 18.8065C43.9779 18.7949 44.6455 19.0846 45.1174 19.606C45.6354 20.1738 45.9231 20.9965 45.9231 21.9235C45.9692 25.8283 45.9576 29.3045 45.9116 32.5605C45.8771 34.5882 44.8412 35.7006 42.9881 35.7006C40.1682 35.7006 37.3368 35.7006 34.5168 35.7006C32.7558 35.7006 30.9833 35.7006 29.2223 35.7006H16.9413C12.9243 35.7006 8.9074 35.7006 4.89046 35.7006C3.03738 35.7006 1.96696 34.4839 1.96696 32.3635V29.9997C1.96696 27.3462 1.96696 24.6001 1.96696 21.8887C1.96696 20.4866 2.62302 19.4206 3.7625 18.9571C4.79838 18.5284 5.97239 18.8992 6.53637 19.8378C6.96224 20.4751 7.21545 21.2977 7.23847 22.0509Z" fill="#1763D1"/>
</svg>
