<svg width="22" height="19" viewBox="0 0 22 19" fill="none" xmlns="http://www.w3.org/2000/svg">
<rect x="18.4492" y="1.14551" width="15.8" height="15.875" rx="5.5" transform="rotate(90 18.4492 1.14551)" fill="#1AC05C"/>
<rect x="18.4492" y="1.14551" width="15.8" height="15.875" rx="5.5" transform="rotate(90 18.4492 1.14551)" fill="#9AA0A6"/>
<rect x="18.4492" y="1.14551" width="15.8" height="15.875" rx="5.5" transform="rotate(90 18.4492 1.14551)" fill="white"/>
<rect x="18.4492" y="1.14551" width="15.8" height="15.875" rx="5.5" transform="rotate(90 18.4492 1.14551)" stroke="black"/>
<rect x="1.05469" y="5.18457" width="1.78214" height="11.132" rx="0.891068" fill="#333E48" stroke="black"/>
<rect x="18.1836" y="5.18457" width="1.78214" height="11.132" rx="0.891068" fill="#333E48" stroke="black"/>
<rect x="18.7656" y="15.4336" width="2.71188" height="16.4843" rx="1.35594" transform="rotate(90 18.7656 15.4336)" fill="#333E48" stroke="black"/>
</svg>
